20030146,Abdon,Rogelio,Serrano,,Seaman,N/A,N/A,N/A,Bico,Jose,Militante,,Baladiang,Aguida,Macunan
19830018,Vargas,Ana Fe,Laurel,,N/A,N/A,N/A,N/A,Abilay,Jose,Manabat,,Abilay,Virginia,Castilo
20170443,,,,,N/A,N/A,N/A,N/A,Abiog,Isaias,Luna,,Beluang,Lerma,Prestosa
19860022,Acuna,Eduardo,Unsod,,Tricycle Operator,N/A,N/A,N/A,Quindoza,Faustino,Regencia,,Borja,Rebecca,
19920038,Alvis,Antonio,Orense,,Government Employee,Department of Public Works and Highways,Port Area Manila,9193818734,BRAnA,ISABELO,MASILUNGAN,,ENDAYA,LEONORA,MAGSINO
20160410,,,,,Planning Officer II,Philippine Commisssion on Women,1145 J. P. Laurel St. San Miguel Manila,,,,,,,,
20170445,,,,,GAD Specialist II,Philippine Commisssion on Women,1145 J. P. Laurel St. San Miguel Manila,,,,,,,,
20030154,,,,,Info. Technology Officer I,Philippine Commisssion on Women,1145 J. P. Laurel St. San Miguel Manila,,,,,,,,
19900034,Baleda,Rodolfo,Batalla,,Systems Analyst/Programmer,Accenture Phils.,McKinley Hills Taguig,9175822315,Estrera,Casimero,Gonzales,,Jayme,Filomena,Arciete
20170433.0,N/A,N/A,N/A,,N/A,N/A,N/A,N/A,Balmes,Dante Epifanio,Tarcelo,,Gonda,Yolinda,Contreras
20120273,N/A,N/A,N/A,N/A,N/A,N/A,N/A,N/A,Baylosis,Mayorico,Mendiola,,Reyes,Marcosa,Legaspi
20180451,Vargas,Victor,Jamig,,Entrepreneur,Kalambakal Mufflers and Metal Crafts,#8420 National Highway Brgy. Lecheria Calamba City Laguna,None,Bellin,Claudio,Hizo,,Tolentino,Josefina,Tesoro
20150375,N/A,N/A,N/A,,N/A,N/A,N/A,N/A,Brigola,Percival,Dalupang,,Villas,Selina,Tameta
20150389,N/A,N/A,N/A,N/A,N/A,N/A,N/A,N/A,Buan,Ricardo,Torres,,Canete,Richelle Ann,Lauria
20070174,,,,,Admin Officer V,Philippine Commisssion on Women,1145 J. P. Laurel St. San Miguel Manila,,,,,,,,
19950048,,,,,Administrative Aide III,Philippine Commisssion on Women,1145 J. P. Laurel St. San Miguel Manila,,,,,,,,
20030148,,,,,Information Officer V,Philippine Commisssion on Women,1145 J. P. Laurel St. San Miguel Manila,,,,,,,,
20180464,,,,,Accountant III,Philippine Commisssion on Women,1145 J. P. Laurel St. San Miguel Manila,,,,,,,,
20140344,,,,,Senior GAD Specialist,Philippine Commisssion on Women,1145 J. P. Laurel St. San Miguel Manila,,,,,,,,
20120277,,,,,Senior GAD Specialist,Philippine Commisssion on Women,1145 J. P. Laurel St. San Miguel Manila,,,,,,,,
20170448,,,,,Attorney III,Philippine Commisssion on Women,1145 J. P. Laurel St. San Miguel Manila,,,,,,,,
20070165,,,,,Planning Officer IV (M&E Officer),Philippine Commisssion on Women,1145 J. P. Laurel St. San Miguel Manila,,,,,,,,
20170423,,,,,Administrative Aide IV,Philippine Commisssion on Women,1145 J. P. Laurel St. San Miguel Manila,,,,,,,,
20080195,,,,,Supervising GAD Specilist,Philippine Commisssion on Women,1145 J. P. Laurel St. San Miguel Manila,,,,,,,,
20070169,,,,,Supervising GAD Specilist,Philippine Commisssion on Women,1145 J. P. Laurel St. San Miguel Manila,,,,,,,,
20130320,N/A,N/A,N/A,N/A,N/A,N/A,N/A,N/A,Esquibal,Guillermo,Mencero,,Anton,Victoria,Gapasin
20170441,,,,,GAD Specialist II,Philippine Commisssion on Women,1145 J. P. Laurel St. San Miguel Manila,,,,,,,,
20160401,,,,,Chief Administrative Officer,Philippine Commisssion on Women,1145 J. P. Laurel St. San Miguel Manila,,,,,,,,
20130316,,,,,Information Officer III,Philippine Commisssion on Women,1145 J. P. Laurel St. San Miguel Manila,,,,,,,,
19800008,,,,,Administrative Aide IV,Philippine Commisssion on Women,1145 J. P. Laurel St. San Miguel Manila,,,,,,,,
20170434,,,,,GAD Specialist II,Philippine Commisssion on Women,1145 J. P. Laurel St. San Miguel Manila,,,,,,,,
19880029,,,,,Administrative Aide VI,Philippine Commisssion on Women,1145 J. P. Laurel St. San Miguel Manila,,,,,,,,
20120283,,,,,Deputy Executive Director ,Philippine Commisssion on Women,1145 J. P. Laurel St. San Miguel Manila,,,,,,,,
20170442,,,,,Senior GAD Specialist,Philippine Commisssion on Women,1145 J. P. Laurel St. San Miguel Manila,,,,,,,,
20130363,,,,,Chief GAD Specialist,Philippine Commisssion on Women,1145 J. P. Laurel St. San Miguel Manila,,,,,,,,
20070187,,,,,GAD Specialist II,Philippine Commisssion on Women,1145 J. P. Laurel St. San Miguel Manila,,,,,,,,
20150362,,,,,GAD Specialist II,Philippine Commisssion on Women,1145 J. P. Laurel St. San Miguel Manila,,,,,,,,
20070182,Maano,Hamelcar,Cantona,,Electronics Engineer (Project-Based),Iman Company,Riyadh Kingdom of Saudi Arabia,+966545374259,Alba,Meliton,Sumagui,,Diamante,Ma. Lagrimas,Gensaya
20180452,,,,,Administrative Aide IV,Philippine Commisssion on Women,1145 J. P. Laurel St. San Miguel Manila,,,,,,,,
20170437,N/A,N/A,N/A,N/A,N/A,N/A,N/A,N/A,Maluya,Pilapil,Leonardo,,Nunez,Linda,Bongabong
20180453,,,,,GAD Specialist II,Philippine Commisssion on Women,1145 J. P. Laurel St. San Miguel Manila,,,,,,,,
20070173,,,,,Accountant II,Philippine Commisssion on Women,1145 J. P. Laurel St. San Miguel Manila,,,,,,,,
20170447,,,,,Supervising GAD Specialist,Philippine Commisssion on Women,1145 J. P. Laurel St. San Miguel Manila,,,,,,,,
19980070,,,,,Chief GAD Specialist,Philippine Commisssion on Women,1145 J. P. Laurel St. San Miguel Manila,,,,,,,,
20150371,N/A,N/A,N/A,,N/A,N/A,N/A,N/A,N/A,N/A,N/A,N/A,N/A,N/A,N/A
20120300,,,,,Administrative Aide VI,Philippine Commisssion on Women,1145 J. P. Laurel St. San Miguel Manila,,,,,,,,
20120281,N/A,a,N/A,N/A,N/A,N/A,N/A,N/A,N/A,N/A,N/A,N/A,N/A,N/A,N/A
20160419,,,,,Planning Officer II,Philippine Commisssion on Women,1145 J. P. Laurel St. San Miguel Manila,,,,,,,,
20150352,,,,,Planning Officer II,Philippine Commisssion on Women,1145 J. P. Laurel St. San Miguel Manila,,,,,,,,
20070181,,,,,Administrative Assistant II,Philippine Commisssion on Women,1145 J. P. Laurel St. San Miguel Manila,,,,,,,,
20090230,,,,,Administrative Officer III,Philippine Commisssion on Women,1145 J. P. Laurel St. San Miguel Manila,,,,,,,,
19830020,PAPASIN,ANDRITO,MOTOL,,N/A,N/A,N/A,N/A,MUYOT,JAIME,SARABIA,,MOTOL,MAGDALENA,MAGNAYE
19960053,,,,,Librarian I,Philippine Commisssion on Women,1145 J. P. Laurel St. San Miguel Manila,,,,,,,,
20120287,,,,,Senior GAD Specialist,Philippine Commisssion on Women,1145 J. P. Laurel St. San Miguel Manila,,,,,,,,
19790007,,,,,Administrative Assistant II,Philippine Commisssion on Women,1145 J. P. Laurel St. San Miguel Manila,,,,,,,,
20020145,,,,,Administrative Aide II,Philippine Commisssion on Women,1145 J. P. Laurel St. San Miguel Manila,,,,,,,,
20140343,,,,,Senior Admin Asst.II,Philippine Commisssion on Women,1145 J. P. Laurel St. San Miguel Manila,,,,,,,,
140260,N/A,N/A,N/A,N/A,N/A,N/A,N/A,N/A,Raya,Benjamin,Brillantes,,Dario,Milagros,Balmes
20030155,,,,,Information Officer IV,Philippine Commisssion on Women,1145 J. P. Laurel St. San Miguel Manila,,,,,,,,
20140349,,,,,Administrative Aide IV,Philippine Commisssion on Women,1145 J. P. Laurel St. San Miguel Manila,,,,,,,,
20180458,Saldana,Alex Grey,Masamayor,,Engineer,,,,Balajoro,Ariel,Jamito,,Delos Nieves,Salvacion,Romero
19990113,N/A,N/A,N/A,N/A,N/A,N/A,N/A,N/A,San Juan,Reynaldo,Crisologo,,Betco,Virginia,Esguerra
20130325,Santos,Carmencita,Castro,,Government Employee,PHILIPPINE INSTITUTE OF TRADITIONAL AND ALTERNATIVE  HEALTH CARE (PITAHC) - DOH,MATAPANG ST. EAST AVENUE QUEZON CITY,(02) 376 3067,SANTOS ,ROLANDO,GONZALES,,SANTOS,ANGELINA,PANGILINAN
20110253,,,,,Supervising GAD Specialist,Philippine Commisssion on Women,1145 J. P. Laurel St. San Miguel Manila,,,,,,,,
19900033,,,,,Administrative Assistant I,Philippine Commisssion on Women,1145 J. P. Laurel St. San Miguel Manila,,,,,,,,
20130309,N/A,,,,,,,,Soldevilla,Joselito,Rili,,Iturrios,Benny,Balang
20140348,N/A,N/A,N/A,N/A,Senior Admin Asst.III,N/A,N/A,N/A,SOTTO,ANTONIO,MARIAZETA,,"BAUTISTA				",VICTORINA,DUEnAS
20150370,,,,,Supervising GAD Specialist,Philippine Commisssion on Women,1145 J. P. Laurel St. San Miguel Manila,,,,,,,,
19940044,,,,,Administrative Officer V,Philippine Commisssion on Women,1145 J. P. Laurel St. San Miguel Manila,,,,,,,,
20150372,,,,,Senior GAD Specialist,Philippine Commisssion on Women,1145 J. P. Laurel St. San Miguel Manila,,,,,,,,
20140347,,,,,Admin Aide IV,Philippine Commisssion on Women,1145 J. P. Laurel St. San Miguel Manila,,,,,,,,
20010137,,,,,Executive Director III,Philippine Commisssion on Women,1145 J. P. Laurel St. San Miguel Manila,,,,,,,,
20120298,N/A,N/A,N/A,N/A,N/A,N/A,N/A,N/A,Villaluna,Roberto,Marquez,,Dulfo,Ma. Victoria,Martinez
20180461,N/A,N/A,N/A,N/A,N/A,N/A,N/A,N/A,Golez,Jose,Galan,,Dela Cruz,Maria Teresa,Lopez