19920038,Mayor Tony Carolino,Sta. Maria Laguna,,,,,,,,,,,,,,,,,,,,,,,
19920038,Mr. Manual Balela,Sta. Maria Academy,,,,,,,,,,,,,,,,,,,,,,,
19920038,Ms. Euprosino Dumlao,Philippine Commission on Women,7351654,,,,,,,,,,,,,,,,,,,,,,
19830020,EUFROSINA O.DUMLAO,CUBAO QUEZON CITY,9178748961,,,,,,,,,,,,,,,,,,,,,,
19830020,ERLINDA DELA PENA,WODLAND BAHAYANGPAG-ASA IMUS CITYCAVITE,9223827875,,,,,,,,,,,,,,,,,,,,,,
19830020,ANA MARIE S.MANALO,SOLDIERSMUNTILUPA CITY,9753842016,,,,,,,,,,,,,,,,,,,,,,
20070182,Lorna O. Magdaraog,Quezon City,0949-4689334,,,,,,,,,,,,,,,,,,,,,,
20070182,Lany Arellano,Quezon City,0933-1708470,,,,,,,,,,,,,,,,,,,,,,
20070182,Lorenza A. Umali,Quezon City,0917-3156555,,,,,,,,,,,,,,,,,,,,,,
20140348,EMMELINE L. VERZOSA,PCW 1145 J.P. LAUREL ST. SAN MIGUEL MANILA,0918 923 5676,,,,,,,,,,,,,,,,,,,,,,
20140348,ELIAS GUERRERO JR.,Manila Bulletin INTRAMUROS MANILA,0917 886 2466,,,,,,,,,,,,,,,,,,,,,,
19830018,Edgar Bondoc,Molave St. Tondo Manila,0918 9296701,,,,,,,,,,,,,,,,,,,,,,
19830018,Edwin Cruz,Molave St. Tondo Manila,0955 1021317,,,,,,,,,,,,,,,,,,,,,,
19830018,Rolando Cabahug,PCW 1145 J.P. LAUREL ST. SAN MIGUEL MANILA,90522437,,,,,,,,,,,,,,,,,,,,,,
19860022,Eufrosina O. Dumlao,Cubao Quezon City,9178748961,,,,,,,,,,,,,,,,,,,,,,
19860022,Erlinda Dela Pena,Woodland Bahayang Pagasa Imus City Cavite,9223827875,,,,,,,,,,,,,,,,,,,,,,
19860022,Ana Marie S. Manalo,Soldiers Muntilupa City,9753842016,,,,,,,,,,,,,,,,,,,,,,
20170443,Antonio G.M. La Vina,Manila Observatory Ateneo De Manila University Loyola Heights Quezon Avenue Quezon City,9989984115,,,,,,,,,,,,,,,,,,,,,,
20170443,Mario C. Villaverde MD MPH MPM,Department of Health Quezon City,9399366903,,,,,,,,,,,,,,,,,,,,,,
20170443,Laura L. Samson MA,Department of Sociology University of the Philippines Diliman Quezon City,9198328345,,,,,,,,,,,,,,,,,,,,,,
19900034,Eufrosina O. Dumlao,20-CD 20th flr Manhattan Parkway Tower 1 Araneta Center Cubao,9178748961,,,,,,,,,,,,,,,,,,,,,,
19900034,Ana Ragos,c/o DOLE Intramuros Manila,9178407177,,,,,,,,,,,,,,,,,,,,,,
19900034,Manuela M. SIlva,#26 Pacita 1 San Pedro Laguna,9162512420,,,,,,,,,,,,,,,,,,,,,,
20150371,Jenalyn M. Estrella,Zaragoza Nueva Ecija,9771725172,,,,,,,,,,,,,,,,,,,,,,
20150371,Ruth G. Luciano MIT Ph. D.,Cabanatuan City Nueva Ecija,9186933168,,,,,,,,,,,,,,,,,,,,,,
20150371,Melanie A. Santos,Cabanatuan City Nueva Ecija,9228468707,,,,,,,,,,,,,,,,,,,,,,
20170433,Ambassador Jose Laurel V,5-15-5 Roppongi Minato-ku Tokyo 106-8537,9199994375,,,,,,,,,,,,,,,,,,,,,,
20170433,DBP Director Ma. Lourdes A. Arcenas,Sen. Gil Puyat Ave. cor. Makati Ave. Makati City,9189175176,,,,,,,,,,,,,,,,,,,,,,
20170433,Transco President and CEO Attty. Melvin Matibag,Power Center Quezon Avenue corner BIR Road Diliman Quezon City,9175542861,,,,,,,,,,,,,,,,,,,,,,
20120273,Carolina G. Hernandez Ph.D.,Institute for Strategic and Development Studies Inc. 40-E Maalalahanin St. Teachers Village East Diliman Quezon City,(02) 929 0889,,,,,,,,,,,,,,,,,,,,,,
20120273,Herman Joseph S. Kraft M.A.,Department of Political Science Silanganan Palma Roxas Ave. cor Africa St. University of the Philippines Diliman,(02) 920 7246,,,,,,,,,,,,,,,,,,,,,,
20120273,Ma. Lourdes Veneracion-Rallonza Ph.D.,Department of Political Science Ateneo de Manila University Loyola Heights Campus,(02) 426 6001 loc. 5250,,,,,,,,,,,,,,,,,,,,,,
20150375,Atty. Emmanuel Jabla,Jabla Bagas Sampior Law Office,9178121626,,,,,,,,,,,,,,,,,,,,,,
20150375,Atty. Mary Rose Tan,UP College of Law,9205514,,,,,,,,,,,,,,,,,,,,,,
20150375,Atty. Joerie Sampior,Jabla Bagas Sampior Law Office,6336832,,,,,,,,,,,,,,,,,,,,,,
20180451,Atty. Damcelle Torres-Cortes,College of Public Affairs and Development University of the Philippines Los Banos Laguna,,,,,,,,,,,,,,,,,,,,,,,
20180451,Ms. Imelda C. CAluen,Center for Governance - Development Academy of the Philippines Pasig City,,,,,,,,,,,,,,,,,,,,,,,
20180451,Rosalinda Pineda-Ofreneo Ph.D.,College of Social Work and Community Development University of the Philippines Diliman QC,,,,,,,,,,,,,,,,,,,,,,,
20150389,Joanna Victoria Navarro,DBM Central Office,9213292528,,,,,,,,,,,,,,,,,,,,,,
20150389,Cora Tabucal,Jesus is Lord Church U-Belt,9275034337,,,,,,,,,,,,,,,,,,,,,,
20150389,Prof. Michelle Z. Bandola-Sotto,Polytechnic University of the Philippines - Manila,9174169119,,,,,,,,,,,,,,,,,,,,,,
140260,MS. MARIA THERESA CAASI,Quezon City,9178134944,,,,,,,,,,,,,,,,,,,,,,
140260,MS. EVANGELINE ASERIT,Manila,9771668160,,,,,,,,,,,,,,,,,,,,,,
140260,MS. DARLENE CARDENAS,Quezon City,9176302976,,,,,,,,,,,,,,,,,,,,,,
20120281,Archt. Jorge C. Tan,San Juan City Metro Manila,9175031122,,,,,,,,,,,,,,,,,,,,,,
20120281,Engr. Leonardo Bondoc,Quezon City,9173460761,,,,,,,,,,,,,,,,,,,,,,
20120281,Archt. Jenilin Agapito - Ambrocio,Taytay Rizal,9325009099,,,,,,,,,,,,,,,,,,,,,,
20180458,Hon. Cristina C. Diaz,Municipal Mayor Local Government of San Mateo Rizal,(02) 706 7920,,,,,,,,,,,,,,,,,,,,,,
20180458,Hon. Rapahael Diaz,Vice Mayor Local Government of San Mateo Rizal,(02) 706 7920,,,,,,,,,,,,,,,,,,,,,,
20180458,Atty. William Arimboyutan Jr.,Assistant City Prosecutor City Prosecutors Office Manila Philippines,9212274127,,,,,,,,,,,,,,,,,,,,,,
19990113,Lorenzo A. Umali,Project 6 Q.C.,9173156555,,,,,,,,,,,,,,,,,,,,,,
19990113,Eufrosina O. Dumlao,1145 J.-P. Laurel St. San Miguel Manila,9178748961,,,,,,,,,,,,,,,,,,,,,,
19990113,Honey M. Castro,1145 J.-P. Laurel St. San Miguel Manila,7358509,,,,,,,,,,,,,,,,,,,,,,
20130325,Bephrime Canaria,Las Pinas City,09164372693,,,,,,,,,,,,,,,,,,,,,,
20130325,Harold Borja,Paranaque City,09053419654,,,,,,,,,,,,,,,,,,,,,,
20130325,Jonathan Montanez,Paranaque City,09177104715,,,,,,,,,,,,,,,,,,,,,,
20180461,Deputy Executive Director Cecile B. Gutierrez,1145 J.P Laurel  St. San Miguel Manila,0917-536-7138,,,,,,,,,,,,,,,,,,,,,,
20180461,Ramil P. Santos,1145 J.P Laurel  St. San Miguel Manila,0915-607-8053,,,,,,,,,,,,,,,,,,,,,,
20180461,Maricar D. Villaluna,1145 J.P Laurel  St. San Miguel Manila,0915-977-3845,,,,,,,,,,,,,,,,,,,,,,
20120298,Eva Marie L. Somosot-Centeno,Bagong Silang Caloocan,9099734271,,,,,,,,,,,,,,,,,,,,,,
20120298,Nazaria M. Aboloc,Calamba Laguna,9496312039,,,,,,,,,,,,,,,,,,,,,,
20120298,Rener Patrick D. Medalla,Pasay City,9161807317,,,,,,,,,,,,,,,,,,,,,,
20170437,Atty. Bianca Balajoro-Saldana,1145 J.P Laurel  St. San Miguel Manila,9177133779,,,,,,,,,,,,,,,,,,,,,,
20170437,Atty. Michelle Borracho,University of Cebu - College of Law Governor Cuenca Ave. Banilad Cebu City,,,,,,,,,,,,,,,,,,,,,,,
20170437,PCW Deputy Director for Operations - Maria Kristine Josefina Balmes,1145 J.P Laurel  St. San Miguel Manila,,,,,,,,,,,,,,,,,,,,,,,