{
   "Module": "Module.AMS.Availment.Authority",
   "Module.AMS.Availment.Authority": {
      "jsonFile": "AvailmentAuthority",
      "Module Name": "Availment of Authority",
      "Description": "",
      "Author": "Erwin Mendoza",
      "System": "Attendance Management System",
      "Module Save Type": "Multiple",
      "Module Type": "List",
      "dbTable": "employeesauthority",
      "dbField": [
         [
            "ApplicationDateFrom",
            "date_ApplicationDateFrom",
            "",
            "date",
            "Application Date From"
         ],
         [
            "ApplicationDateTo",
            "date_ApplicationDateTo",
            "",
            "date",
            "Application Date To"
         ],
         [
            "AbsencesRefId",
            "sint_AbsencesRefId",
            "0",
            "int",
            "Authority"
         ],
         [
            "Whole",
            "sint_Whole",
            "0",
            "int",
            "Whole Day"
         ],
         [
            "FromTime",
            "FromTime",
            "0",
            "int",
            "Start Time"
         ],
         [
            "ToTime",
            "ToTime",
            "0",
            "int",
            "End Time"
         ],
         [
            "FiledDate",
            "date_FiledDate",
            "",
            "date",
            "Date Filed"
         ],
         [
            "Remarks",
            "char_Remarks",
            "",
            "char",
            "Remarks"
         ],
         [
            "Destination",
            "char_Destination",
            "",
            "char",
            "Destination"
         ],
         [
            "ControlNumber",
            "char_ControlNumber",
            "",
            "char",
            "ControlNumber"
         ],
         [
            "FundDesc",
            "char_FundDesc",
            "",
            "char",
            "FundDesc"
         ],
         [
            "ActivityNature",
            "char_ActivityNature",
            "",
            "char",
            "ActivityNature"
         ],
         [
            "EventName",
            "char_EventName",
            "",
            "char",
            "EventName"
         ],
         [
            "Sponsor",
            "char_Sponsor",
            "",
            "char",
            "Sponsor"
         ],
         [
            "FundType",
            "sint_FundType",
            "0",
            "int",
            "Fund Type"
         ],
         [
            "Signatory1",
            "sint_Signatory1",
            "0",
            "sint",
            ""
         ],
         [
            "Signatory2",
            "sint_Signatory2",
            "0",
            "sint",
            ""
         ],
         [
            "FuelTicketNo",
            "char_FuelTicketNo",
            "",
            "char",
            ""
         ],
         [
            "VehicleType",
            "char_VehicleType",
            "",
            "char",
            ""
         ],
         [
            "Driver",
            "char_Driver",
            "",
            "char",
            ""
         ],
         [
            "PlateNo",
            "char_PlateNo",
            "",
            "char",
            ""
         ],
         [
            "OtherPassenger",
            "char_OtherPassenger",
            "",
            "char",
            ""
         ],
         [
            "RegulationArea",
            "char_RegulationArea",
            "",
            "char",
            ""
         ],
         [
            "DivisionRefId",
            "sint_DivisionRefId",
            "0",
            "sint",
            ""
         ],
         [
            "LDMSLNDProgramRefId",
            "sint_LDMSLNDProgramRefId",
            "0",
            "sint",
            ""
         ]
         
      ],
      "field.EndDate": "ApplicationDateTo",
      "field.StartDate": "ApplicationDateFrom",
      "Notes": "Fields[0] - Object Name[1] - Default Value[2] - Data Type[3] - Label[4]"

   }

}

