{
	"TimeIn":"1",
	"LunchOut":"2",
	"LunchIn":"3",
	"TimeOut":"4",
	"OTIn":"5",
	"OTOut":"6",
	"OBOut":"7",
	"OBIn":"8",
	"FieldTimeIn":"TimeIn",
	"FieldLunchOut":"LunchOut",
	"FieldLunchIn":"LunchIn",
	"FieldTimeOut":"TimeOut",
	"OTMinTime":"120",
	"COCMinTime":"60"
}