{
	"TimeIn":"1",
	"LunchOut":"3",
	"LunchIn":"4",
	"TimeOut":"2",
	"OTIn":"5",
	"OTOut":"6",
	"OBOut":"7",
	"OBIn":"8",
	"FieldTimeIn":"TimeIn",
	"FieldLunchOut":"LunchIn",
	"FieldLunchIn":"TimeOut",
	"FieldTimeOut":"LunchOut",
	"OTMinTime":"120",
	"COCMinTime":"60"
}