{
   "Module": "Module.PIS.EmployeesMovement",
   "Module.PIS.EmployeesMovement": {
      "File": "scrnEmpMovement",
      "Title": "Employees Movement Record(s)",
      "Description": "",
      "Action": [
         true,
         true,
         true,
         false
      ],
      "trnFile": "trnEmpMovement.e2e.php",
      "jsonFile": "EmpMovement.json",
      "Author": "Erwin Mendoza",
      "System": "Personal Information System",
      "Module Save Type": "Single",
      "dbTable": "employeesmovement",
      "dbField": [
         [  "ApptStatusRefId",
            "sint_ApptStatusRefId",
            "0",
            "int",
            "Appt. Status",
            false,
            true,
            "center",
            "",
            "drop",
            ""
         ],
         [  "Present",
            "sint_Present",
            "0",
            "int",
            "",
            false,
            true,
            "",
            "",
            "",
            ""
         ],
         [
            "EffectivityDate",
            "date_EffectivityDate",
            "",
            "date",
            "Effectivity Date",
            false,
            true,
            "center",
            "",
            "",
            ""
         ],
         [
            "ExpiryDate",
            "date_ExpiryDate",
            "",
            "date",
            "Expiry Date",
            false,
            true,
            "center",
            "",
            "",
            ""
         ],
         [
            "Remarks",
            "char_Remarks",
            "",
            "char",
            "Remarks",
            false,
            true,
            "left",
            "",
            "text",
            ""
         ],
         [
            "NewEmployeesId",
            "char_NewEmployeesId",
            "",
            "char",
            "New Employees ID",
            false,
            true,
            "left",
            "",
            "text",
            ""
         ],
         
         [  "AgencyRefId",
            "sint_AgencyRefId",
            "0",
            "int",
            "Agency",
            false,
            true,
            "center",
            "",
            "drop",
            ""
         ],
         [  "PositionItemRefId",
            "sint_PositionItemRefId",
            "0",
            "int",
            "Position Item",
            false,
            true,
            "center",
            "",
            "drop",
            ""
         ],
         [  "PositionRefId",
            "sint_PositionRefId",
            "0",
            "int",
            "Position",
            false,
            true,
            "center",
            "",
            "drop",
            ""
         ],
         [  "DepartmentRefId",
            "sint_DepartmentRefId",
            "0",
            "int",
            "Department",
            false,
            true,
            "center",
            "",
            "drop",
            ""
         ],
         [  "OfficeRefId",
            "sint_OfficeRefId",
            "0",
            "int",
            "Office",
            false,
            true,
            "center",
            "",
            "drop",
            ""
         ],
         [  "DivisionRefId",
            "sint_DivisionRefId",
            "0",
            "int",
            "<label>",
            false,
            true,
            "center",
            "",
            "drop",
            ""
         ],
         [  "EmpStatusRefId",
            "sint_EmpStatusRefId",
            "0",
            "int",
            "Employment Status",
            false,
            true,
            "center",
            "",
            "drop",
            ""
         ],
         [  "SalaryGradeRefId",
            "sint_SalaryGradeRefId",
            "0",
            "int",
            "Salary Grade",
            false,
            true,
            "center",
            "",
            "drop",
            ""
         ],
         [  "JobGradeRefId",
            "sint_JobGradeRefId",
            "0",
            "int",
            "Job Grade",
            false,
            true,
            "center",
            "",
            "drop",
            ""
         ],
         [  "DesignationRefId",
            "sint_DesignationRefId",
            "0",
            "int",
            "Designation",
            false,
            true,
            "center",
            "",
            "drop",
            ""
         ],
         [  "StepIncrementRefId",
            "sint_StepIncrementRefId",
            "0",
            "int",
            "Step Increment",
            false,
            true,
            "center",
            "",
            "drop",
            ""
         ],
         [  "SalaryAmount",
            "deci_SalaryAmount",
            "0",
            "deci",
            "Salary Amount",
            false,
            true,
            "center",
            "",
            "text",
            ""
         ],
         [  "LWOP",
            "sint_LWOP",
            "0",
            "int",
            "LWOP",
            false,
            true,
            "center",
            "",
            "type",
            ""
         ],
         [
            "LWOPDate",
            "date_LWOPDate",
            "",
            "date",
            "LWOP Date",
            false,
            true,
            "center",
            "",
            "type",
            ""
         ],
         [
            "Cause",
            "char_Cause",
            "",
            "",
            "Cause",
            false,
            true,
            "left",
            "",
            "type",
            ""
         ]
      ]
   }
}