{
	"EmployeesRefId":"Employees",
	"CompanyRefId":"Company",
	"BranchRefId":"Branch",
	"AgencyRefId":"Agency",
	"PositionRefId":"Position",
	"EmpStatusRefId":"Employees Status",
	"SalaryGradeRefId":"Salary Grade",
	"JobGradeRefId":"Job Grade",
	"StepIncrementRefId":"Step Increment",
	"PayrateRefId":"Pay Rate",
	"WorkStartDate":"Work Start Date",
	"WorkEndDate":"Work End Date",
	"SalaryAmount":"Monthly Salary",
	"YearRate":"Annual Salary",
	"ExtDate":"Extension Date",
	"SeparatedDate":"Separated Date",
	"ApptStatusRefId":"Appointment Status",
	"isGovtService":"Govt. Service",
	"isServiceRecord":"Service Record",
	"GovtIssuedID":"Govt. ID Issued",
	"GovtIssuedIDNo":"Govt. ID No. Issued",
	"GovtIssuedIDPlace":"Govt. ID Place Issued",
	"GovtIssuedIDDate":"Govt. ID Date Issued",
	"GovtIssuedIDValidUntil":"Govt. ID Valid Until Issued",
	"PayGroup":"Pay Group",
	"SpouseLastName":"Spouse Last Name",
	"SpouseFirstName":"Spouse First Name",
	"SpouseMiddleName":"Spouse Middle Name ",
	"SpouseExtName":"Spouse Ext. Name",
	"SpouseBirthDate":"Spouse Birth Date",
	"OccupationsRefId":"Occupations",
	"EmployersName":"Employers Name",
	"ContactNo":"Contact No.",
	"BusinessAddress":"Business Address",
	"SpouseMobileNo":"Spouse Mobile No.",
	"FatherLastName":"Fathers Last Name",
	"FatherFirstName":"Fathers First Name",
	"FatherMiddleName":"Fathers Middle Name",
	"FatherExtName":"Fathers Ext Name",
	"MotherLastName":"Mothers Last Name",
	"MotherFirstName":"Mothers First Name",
	"MotherMiddleName":"Mothers Middle Name",
	"MotherExtName":"Mothers Ext. Name",
	"OrganizationRefId":"Organizations",
	"LevelType":"Level Type",
	"SchoolsRefId":"Schools",
	"CourseRefId":"Course",
	"YearGraduated":"Year Graduated",
	"HighestGrade":"Highest Grade",
	"DateFrom":"Date From",
	"DateTo":"Date To",
	"StartDate":"Start Date",
	"EndDate":"End Date",
	"NumofHrs":"No. of Hours",
	"SeminarsRefId":"Seminars",
	"SponsorRefId":"Sponsor",
	"SeminarPlaceRefId":"Seminar Place",
	"SeminarTypeRefId":"Seminar Type",
	"WorksNature":"Nature of Work",
	"CareerServiceRefId":"Career Service",
	"ExamDate":"Exam Date",
	"ExamPlace":"Exam Place",
	"LicenseNo":"License No",
	"LicenseReleasedDate":"License Released Date",
	"LastUpdateDate":"Last Update Date",
	"LastUpdateTime":"Last Update Time",
	"LastUpdateBy":"Last Update By",
	"Q1aexp":"If YES, give details:",
	"Q1bexp":"If YES, give details:",
	"Q2aexp":"If YES, give details:",
	"Q2bexp":"If YES, give details:",
	"Q2DateFiled":"Date Filed:",
	"Q2CaseStatus":"Status of Case/s:",
	"Q3aexp":"If YES, give details:",
	"Q4aexp":"If YES, give details:",
	"Q5aexp":"If YES, give details:",
	"Q5bexp":"If YES, give details:",
	"Q6aexp":"If YES, give details:",
	"Q7aexp":"If YES, give details:",
	"Q7bexp":"If YES, give details:",
	"Q7cexp":"If YES, give details:"
}