{
	"TimeIn":"1",
	"LunchOut":"2",
	"LunchIn":"3",
	"TimeOut":"4",
	"OTIn":"5",
	"OTOut":"6",
	"OBOut":"7",
	"OBIn":"8",
	"FieldTimeIn":"TimeIn",
	"FieldLunchOut":"LunchOut",
	"FieldLunchIn":"LunchIn",
	"FieldTimeOut":"TimeOut",
	"OTMinTime":"120",
	"COCMinTime":"60",
	"show.JobGrade": true,
	"show.MyRequest": false,
	"SignInMode": 1,
	"SignInLayout":1,
	"userCanAddWE": true,
	"userCanEditWE": true,
	"userCanAddSR": true,
	"userCanEditSR": true,
	"WorkingHrs": 8, 
	"Title":"Human Resource Information System",
	"Last": true
}