3064,Clark Tyrell Lorenz,2006-07-19
3064,Lonise Julien Carpena ,2009-12-30
3064,James Louise Carpena,2012-06-07
3180,Frances Nicole B. Ocampo,2000-06-09
3180,Glenn Benedict B.Ocampo,2001-11-28
3245,Chrislie O. Flores,2013-02-22
3255,Romaida Franco Salido,1983-06-17
3255,Roman Ronald Salido,1984-10-18
3255,Nicole Andrianee Salido,2007-11-28
3255,Jasmin Salido,2010-08-04
3353,ADRIAN E. NOGOY,1999-01-20
3353,ANAMARICEL NOGOY,2003-09-27
3389,Christine Rhose Czarina F. Mallorca ,2004-06-11
3389,Christian Roemel F. Mallorca,2011-09-08
3392,Alexis Jon S. Reyes,1999-11-03
3392,Gretchen S Reyes,2000-11-28
3392,Marco Polo S. Reyes,2018-05-30
1976001,Caren Kay B. Ragasa,1989-04-29
1976001,Kayceline B. Ragasa,1991-07-28
1976001,Paul Benson B. Ragasa,1996-10-24
1976001,John Vicson B. Ragasa,1998-11-06
1976001,Floyd Enson B. Ragasa,2002-04-24
1976002,MERVIN A. GARCIA,1985-02-25
1976004,JOHN ERIC TRISTAN M. CRUZ,1982-05-28
1976004,KRISTINE FAITH M. CRUZ,1985-01-15
1977001,JOHN CARLO ATANACIO,1993-09-04
1977001,CHRISTIAN AUGUST ATANACIO,1996-05-30
1977002,Maridel O. Gonzales,1983-07-03
1977002,,2018-07-03
1977004,Mary joy R. Esguerra,1982-09-05
1977004,Marck Raymond R. Esguerra,1990-10-21
1978001,Gilda C. Sepagan,1979-01-08
1978001,Larry C. Sepagan,1982-09-15
1978001,Ruben C. Sepagan Jr.,1984-08-01
1978001,Glen C. Sepagan,1999-05-05
1978002,JOAN D. INVENTOR,1988-01-30
1978003,Jennylyn R. Reyes,1984-04-15
1978003,Jayson R. Reyes,1987-07-08
1978005,Gary Jed Martin,1988-09-07
1978005,Hannah Martin,2000-10-27
1978007,Harold M. Clavio,1981-11-04
1978007,Aileen M. Clavio,1983-09-14
1978007,Harleen M. Clavio,1989-10-02
1978007,,2018-07-03
1978009,ROVI NEIL A. SIA,1988-11-28
1978009,ROYCE VINCE A. SIA,1993-06-12
1979001,Reynan V. Serquina,1982-11-06
1979001,Reymond V. Serquina,1984-08-13
1979001,Rodolfo V. Serquina,1992-09-19
1979001,Mary Jane V. Serquina,1994-02-12
1979001,John Philip V. Serquina,2001-08-10
1979002,Ma.Carleen Rodriguez,1986-03-10
1979002,Sheila Marie Rodriguez,1988-03-11
1979002,John Nathaniel Rodriguez,1990-12-13
1979002,Lea Nariz Rodriguez,1997-12-01
1980001,Christian T. Ferrer,1986-07-05
1980001,Carlsen T. Ferrer,1992-05-10
1980002,Tyrone Paul D. Lim,1994-02-07
1980002,Cynthia Patricia D. Lim,1995-10-05
1981001,MA.REVERIE C. JABSON,1979-05-18
1981001,MARC JUDE C. JABSON,1980-07-20
1981001,JOANNE MARIE C. JABSON,1982-09-06
1981001,JONAS RICHMOND C. JABSON,1985-08-02
1981001,REINZIE JOYCE C. JABSON,1988-11-07
1981002,BRYAN CHRISTIAN B. ALCANTARA,1987-07-17
1981002,CHARLENE B. ALCANTARA,1995-08-28
1981003,Kariza Kyra P. Delos Reyes,1998-08-18
1981003,Kenzel Keana P. Delos Reyes,2001-11-11
1981003,Ezekiel P. delos Reyes,2009-08-11
1983001,MARC JESUEL M. ENERLAN,1989-08-08
1983001,ALLEN REY M. ENERLAN,1990-08-27
1983002,Marigold F. Entereso,1983-04-06
1983002,Mark Lester F. Entereso,1985-08-07
1983002,Peter John F. Entereso,1987-07-08
1983002,HYACINTH F. ENTERESO,1991-05-18
1983003,CARMELA P. AGUISANDA,1994-09-28
1984001,MICHAEL C. AGUILAR,1986-08-04
1984001,MARLON C. AGUILAR,1989-09-14
1984001,SHIELA C. AGUILAR,1992-09-25
1984002,Emmanuel A. Toque,1985-09-15
1984002,Leoandrew A. Toque,1989-09-12
1984002,Jerome A. Toque,1992-02-04
1984003,Maica May S. Loreto,1994-05-06
1984003,Reynaldo S. Loreto III,1995-05-05
1984003,Janica S. Loreto,1997-07-22
1984003,Jorn Justin S. Loreto,2001-01-02
1984003,Inigo S. Loreto,2002-07-30
1984003,Johanna S. Loreto,2009-01-06
1985001,Henry B. Bermudez,1987-04-26
1985001,Karen B. Bermudez,1999-12-31
1985002,JESSIE JAMES GALOTIA,2001-09-23
1985002,Xyryle Mae Galotia,2009-05-04
1985004,JOHN ARVIN S. ANCHORES,1996-10-27
1985004,AIRA GRACE S. ANCHOREZ,1999-04-14
1985004,JOHN CHRISTIAN S. ANCHOREZ,2000-05-28
1985004,CHRISTINE S. ANCHOREZ,2002-04-19
1985005,ERICKSON G. ABUTAL,1988-10-07
1985005,EMERLYN G. ABUTAL,1984-02-14
1985007,Laiza Marie Dalay,2002-12-12
1985008,Errol G. Mallari,1985-11-20
1985008,Jaquelyn G. Mallari,1986-12-01
1985008,John A. G. Mallari,1994-08-12
1985008,Jojo G. Mallari,2000-08-11
1985008,Robert G. Mallari,2002-10-09
1985008,Francis G. Mallari,2002-10-09
1987001,LILAINE V. DIMACULANGAN,1997-02-02
1987001,MARCLEE V. DIMACULANGAN,1998-02-07
1987001,LIANMAR V. DIMACULANGAN,2000-08-23
1987001,0,2013-04-26
1987001,MARCOLI V. DIMACULANAGN,2004-09-28
1987002,JONAS EMMENUEL FAJARDA,1989-10-12
1987002,JONATHAN DAVE FAJARDA,1991-02-22
1987002,JOHN PHILIP FAJARDA,1998-11-05
1987003,LAWRENCE BREN FRONDA,1998-01-05
1987003,GLENN BRYAN FRONDA,2001-02-19
1987003,CHARISSE JOY FRONDA,2004-11-03
1987004,MANILET P. ASCANO,1979-03-18
1987004,LIMUEL P. ASCANO,1983-07-17
1987005,Justine C. Tagal,2001-08-15
1987006,PATRICIA ASHLEY F. GARGOLLO,1997-08-03
1987006,PATRICE YSABELLE F. GARGOLLO,2000-09-06
1987007,Jamie Kathleen U. Ramones,1989-11-05
1987007,Pierre Angelo U. Ramones,1992-01-16
1987008,Vikka Angelica C. Villoso,1988-04-26
1987008,Marivic Thevese C. Villoso,1990-07-06
1987009,CASELYN R. CARIAGA,1991-03-16
1987009,CARMELO R. CARIAGA,1994-05-31
1987009,MARLOU R. CARIAGA,1996-08-08
1987009,CAMILO R. CARIAGA JR.,1998-01-28
1987009,ANGELICA R. CARIAGA,1999-06-10
1987009,CAMILLE R. CARIAGA,2001-07-24
1987009,MONICA R. CARIAGA,2002-11-23
1987010,Norman H.Datul,1996-08-31
1987010,Noemi H. Datul,1997-11-12
1987010,Mikka H. Datul,2000-04-30
1987010,Nico H. Datul,2003-09-27
1987011,KRYSTEL ANGELI A. SAGRADO,1992-12-03
1987011,CZARINA GRACE A. SAGRADO,1994-04-27
1987011,RUSSEL ANGELO A. SAGRADO,1997-11-13
1987011,SHERYL ANNE A. SAGRADO,1999-10-25
1987013,Kevin Daniel B. Bardiano,1991-10-05
1987013,Alec Vincent B. Bardiano,1997-08-16
1987014,Chris Carlo R. Tamayo,1989-12-01
1987014,Paul James R. Tamayo,1994-01-24
1987014,Abigail Grace R. Tamayo,2001-08-11
1988001,JO-ARNICK F. DIME,2000-12-08
1988002,NATHANIA,1992-04-05
1988002,NICOLE,1993-08-01
1988003,LANCE JUSTIN FRANCISCO,2000-09-12
1988003,LORENZ AGUSTIN FRANCISCO,2003-08-14
1988003,LIAM KYLE LIM,2009-10-16
1989001,JAN JIMWELL L. PANGANIBAN,1998-01-23
1989001,JANEL ALIYA L. PANGANIBAN,2001-11-11
1989001,JOSE MARCEL L. PANGANIBAN,2005-04-30
1989002,DAN HENRY S. JUCUTAN,1985-10-04
1989002,IDERWISA S. JUCUTAN,1988-10-27
1989002,ERWIN NELL S. JUCUTAN,1991-09-19
1989002,JESSICA S. JUCUTAN,1993-06-01
1989003,ZAIRAH ANDREA CHLOE E. FUDOLIG,2010-04-30
1989003,MIKHAIL KHALIQ E. FUDOLIG,2008-03-17
1989004,Erica Lois G. Gurimbao,1997-04-21
1989004,Ezekiel Jan G. Gurimbao,2001-01-16
1989004,Lance Angelo G. Gurimbao,2002-02-16
1989004,Lexine Chloe G. Gurimbao,2008-05-28
1989006,MARA DIVINA CAPARROS,1990-12-13
1989006,NICA PATRICIA CAPARROS,1995-03-11
1989007,Meryll Angelica J. Viernes,1993-04-18
1989007,Marlene Alyanna J. Viernes,1994-08-04
1989007,Marielle Almira J. Viernes,1996-11-16
1989007,Alex Miguel J. Viernes,2008-01-04
1990001,MARY CLAREY A. DELA CRUZ,2010-11-02
1990002,Verlin Y. Macanip,1979-05-11
1990002,Verna Y. Macanip,1982-03-11
1990002,Virgilio Y. Macanip jr.,1984-08-19
1990002,Jonathan Y. Macanip,1990-01-22
1990003,ELLA A. PUERTO,2004-12-01
1990004,DANICA JOY CHRISTELLE L. PILLAR,1993-11-18
1990004,DANIEL JOHN CHRISTIAN L. PILLAR,1995-01-15
1990005,Efrain D. Marasigan,2003-05-31
1990007,Eden May B. Dela Pena,1984-02-09
1990007,Eden Nicole B. Dela Pena,1989-04-13
1990007,Robert B. Dela Pena,1993-07-13
1990007,Ron Jobert B. Dela Pena,1998-10-08
1990008,RYANMEL CHRISTIAN V. ADAME,1997-01-03
1990008,ROSEMEL V. ADAME,2002-05-12
1990011,MELISSA DIME,1998-09-03
1990011,JO-ARNICK DIME,2000-12-08
1990011,BERNARDO DIME,2001-06-25
1990011,XENA AYLA DIME,2008-03-09
1990012,BENEDICT H. GUEVARRA,1993-07-27
1990012,MARI THEA  H. GUEVARRA,1995-09-19
1990012,GENE PATRICK H. GUEVARRA,1996-10-18
1990012,MONIQUE GABRIELLE H. GUEVARRA,2004-11-13
1990013,Eldrick Christian T. Cortez,1997-05-06
1990013,Christine Eden T. Cortez,1989-05-18
1990014,ARVILINDr C. PAGATALUNAN,1991-01-16
1990014,REY ROVIL C. PAGTALUNAN,1993-04-29
1991001,Lean Kristofer G. Rivera,1996-09-07
1991001,Lenard G. Rivera,1999-01-30
1992001,Anna Patrieze Z. Laluente,1997-11-02
1992001,Arvin Florenz Z. Lafuente,1995-12-04
1992001,Amelieze Z. Lafuente,1994-10-23
1992002,Junimar N. Morla,1996-07-18
1992005,FAYE C. PACHOCO,1978-07-03
1992005,JERILEE C. PACHOCO,1979-12-01
1992005,AYN FRITZI C. PACHOCO,1982-06-28
1992005,JUNE KARLA C. PACHOCO,1987-06-23
1992005,JAN SANDINO C. PACHOCO,1992-01-09
1992006,LYKA S. FORBES,1996-06-09
1992006,LARA MAE S. FORBES,1999-01-01
1992006,LOWELL IVAN S. FORBES,2001-03-09
1992007,CHEDRIK WALLY R. ANDAL,2000-03-03
1992007,GRACIOUS ANN R. ANDAL,2002-09-27
1992007,MARK DANIEL ANDAL,2012-02-28
1992007,MARK DANIEL ANDAL,2012-02-28
1992008,Josie M. Romero,1987-12-22
1992008,Diana Rose M. Romero,1990-12-17
1992009,Jeff Regala Jerusalem,1996-10-24
1992009,Jerome Regala Jerusalem,1997-10-05
1992009,John Mickael Regala Jerusalem,2000-01-14
1993001,ANDREI CATALAN,2003-02-06
1993004,JOHN MARK M. AYAO,1991-02-17
1993004,JYRWEN M. AYAO JR.,1992-11-15
1993004,JHELYN M. AYAO,1994-07-05
1993004,JOY DARLENE M. AYUAO,1996-07-20
1993005,ZHAIRA P. SERNAL,1995-07-01
1993005,MARIELLE P. SERNAL,1998-11-05
1993005,JANELLE P. SERNAL,2000-11-25
1993006,Andrei A. Catalan,2003-02-06
1993008,VINCENT REY A. DE OCAMPO,2009-03-05
1993008,MARCUS RANIEL A. DE OCAMPO,2010-05-10
1994001,Sid Miguel M. Millo,1995-12-02
1994001,0,2013-05-03
1994001,Seth Juachin M. Millo,2005-07-14
1994002,SETH JOACHIM M. MILLO,2005-07-14
1994002,SID MIGUEAL  M. MILLO,1995-12-02
1994003,MARTINA LEILA R. HABANA,2004-09-20
1994004,Marquin James,2007-02-15
1994005,ELISHA MARIE M. RUBIS,2004-05-05
1995001,APRIL JOY M.  DIASANTA,1991-04-10
1995001,ADRIAN M. DIASANTA,1992-10-08
1995001,GED M. DIASANTA,2002-07-04
1995003,JOHN MARC TUJON,2000-07-17
1995003,JOSUA CALEB TUJON,2003-01-14
1995003,ADRIAN JAMES TUJON,2004-11-06
1995003,JOHN PAUL TUJON,2005-09-07
1995004,NICCOLO JOHANNES R. PASCO,1990-12-17
1995004,VIARRA R. PASCO,1992-09-14
1995005,Claire Antonette B. Banal,2000-04-12
1995005,Ana Theresa B. Banal,2001-09-24
1995005,Rianne Monique B. Banal,2007-08-25
1995006,JUAN PAULO F. PEDRAZA,2007-11-16
1995007,ROVAN JAMES CORONA,1999-10-12
1995007,STEPHEN JOHN CORONA,2003-11-18
1995007,DUX DANIEL CORONA,2008-01-14
1996001,ANGELITO JOHN D. PILAR,1996-11-08
1996001,ADRIAN JERALD D. PILAR,2001-07-08
1996003,MARC LEMUEL B. AFABLE,1998-06-20
1996003,MARYNELLA LAICA B. AFABLE,2000-06-05
1996003,MARYCAILA LARRA B. AFABLE,2006-05-05
2003001,JERICHO MATTHEW C. AGUSTIN,2012-04-09
2003002,Audric Jean N. Ortiz,2003-12-19
2008003,Julia Althea Pangilinan,2010-12-05
2010003,LANCE ALBERT C. OBREGON,2015-05-10
2010004,CAYENNE AKISHA F. GARCIA,2010-10-10
2010005,JHAN KEVIN ASMANDO,2009-05-15
2010010,Julian Frederick B. Erispe,2015-07-04
2010011,Xena Elise S. Bedis,2013-06-26
2010012,JOHN PATRICK N. PATRIARCA,2011-06-22
2010013,KENNETH GIL T. SEVILLA,1991-02-27
2010013,KIM APPLE T. SEVILLA,1992-04-23
2010013,KIMBERLY ANN T. SEVILLA,1997-03-17
2010013,KARL JOVEN T. SEVILLA,2006-06-12
2010014,Sophie Brianna Zane C Bonggat,2013-07-01
2010014,Keiffer Zyler C. Bonggat,2016-01-12
2010016,Amara Jana M. Alamon,2016-05-10
2010019,Julian Frederick B. Erispe,2015-07-04
2010019,Julian Patric B. Erispe,2017-04-09
2010021,Miguel Ernesto T. Llanto,2014-10-11
2011001,ZIV MAPALO MARQUEZ,2002-12-13
2011002,Sean Dominic T. Borlado,2014-04-27
2011005,ATHENA YSHELLE D. YSIT,2007-11-09
2011005,HERA KRYSTAL D. YSIT,2009-02-11
2011005,THEIA DIVINE D. YSIT,2013-11-07
2011006,Krishna Dasi Teodosio,2011-12-04
2011006,Ayeshal Lei Teodosio,2010-09-22
2011006,Marie Krishel Zhypres Teodosio,2005-02-08
2011008,JARED PAOLO A. LUBAT,2010-08-07
2011008,JULIANA PEARL AGONOY,2013-12-25
2011008,JHOV PETER A. QUEJA,2017-04-21
2011008,JHED PATRICK A. QUEJA,2017-04-21
2011009,MIGUEL ENRICO O. HERNANDEZ,2005-02-08
2011009,MIKHAYLA O. HERNANDEZ,2010-01-08
2011010,Maru Gabriel L. Luces,2013-09-08
2011010,Amber Franchesca L. Luces,2015-05-18
2011011,Kelvin  Maatthew M. Dela la Rama,2016-03-15
2011013,RAPHAEL GIONREI VILLABITO GABUYA,2014-12-11
2011016,Caera Jorinne C. Velasco,2015-07-11
2011017,Liahm James A. Bathan,2014-05-05
2011018,Francis C. Maliwat,1996-05-03
2011018,Denzel John C. Maliwat,2000-03-26
2011019,RAY ALLE ALVIOR,2003-01-31
2011022,Caera Jorinne C. Velasco,2015-07-11
2011024,ANGELLA MAE VALLEJO FRIAS,2012-06-13
2011027,YSABEL NEENA R. GAYAHAN,1994-05-19
2011027,SETH ENRIQUE R. GAYAHAN,2000-04-02
2011027,BIANCA PATRICIA R. GAYAHAN,2003-06-09
2011030,YUAN GABRIEL V. NERI,2016-05-05
2011033,GABRIEL BAUTISTA,2008-09-02
2011033,MARIELLE MAE BAUTISTA,2006-08-18
2011033,ELCID MANALIGOD,2002-06-18
2011035,Yuki Primo M. Quibot,2015-11-16
2011037,Gian Paul M. Brual,2005-04-21
2011037,Pulianna M. Brual,2005-04-08
2012001,GIANNA LAUREN T. DIONEDA,2017-01-07
2012004,Thomas Jabob A. Rogelio,2013-11-23
2012006,Michaela May F. Franco,2014-05-15
2012007,JHON MARVINCE V. MANABAT,2004-02-11
2012007,KEIGHT PRINCES V.  MANABAT,2008-07-30
2012007,Marivenice V. Manabat,2013-05-01
2012007,Vin Mateo V. Manabat,2015-03-14
2012009,Nicole Angela D. Moreno,2007-06-23
2012009,Coline Angela D. Moreno,2012-10-05
2012009,Cedric Angelo D. Moreno,2015-10-26
2012012,Josiah Francis T. Calanno,1999-06-27
2012012,Maria Ericka T. Calanno,1984-01-19
2012012,Lord Brian T. Calanno,1985-02-05
2012012,Mariah Camille T. Calanno,1992-06-19
2012013,ABRAM CALEB R. IBANEZ,2011-02-10
2013001,Akila Yan M. Pacia,2016-07-20
2013004,CLAED CHRISTIAN ALONZO GEALAN,2011-02-02
2013007,JOHN WILBERT A. OLIVA,1988-01-25
2013007,ALBERTO A. OLIVA JR.,1990-05-22
2014001,GENILL MARQUISSE B. PULLAN,2011-12-01
2014002,JEWEL MISCHKA T. MURCILLA,2015-12-10
2014006,LIAN MARI T. MOTAS,1996-08-13
2014006,LORRAINE MAE T. MOTAS,1997-09-10
2014006,LOUISE MOREEN T. MOTAS,2001-01-25
2015004,Angela Kaitlyn R. Porlucas,2012-09-03
2015004,Francis Dominic R. Porlucas,2013-11-26
2015006,ALYSSA ERICA C. DUPAGAN,2001-01-20
2015007,John Daryl A. Quingco,1994-06-28
2015007,Jane Kashmir A. Quingco,1996-06-02
2015007,James Cedric A. Quingco,1998-03-08
2015007,Judd Russel A. Quingco,2001-06-24
2015007,Jann Nicole A. Quingco,2006-01-19
2016001,Lianne Francene A. Saludes,2013-10-28
2016002,Matthew B. Dizon,2006-05-30
2016004,Aziekale Lauigne A Rasco,2011-02-20
2016006,Rednaxela Azillana Cruz Gonzales,2000-12-21
2016006,Ranis Aezrel Cruz Gonzales,2002-06-28
2016006,Rufxuz Aeviel Cruz Gonzales,2006-05-14
2016006,Ryjev Akquiel Cruz Gonzales,2007-09-28
2016006,Rixzef Ajfrielle Cruz Gonzales,2010-02-19
2016006,Raz Aejelle Cruz Gonzales,2011-02-19
2016009,Ma. Franzesca Polyn M. Balontong,2001-03-31
2016009,Mary Fran Zelene M. Balontong,2006-12-18
2016009,Maria Regina M. Balontong,2016-01-20
2016011,Noguera John Richard C.,1992-06-24
2016011,Noguera Dianne,1997-08-09
2016011,NOGUERA IVY,2000-03-07
2016011,JOHN RICHARD C. NOGUERA,1992-06-05
2016012,Jhonna Marie Sevilla,1991-04-17
2016012,Joy Ann Sevilla,1992-07-16
2016012,Justin Sevilla,1997-07-20
2017004,Jayvan D. Mabanglo,2002-09-08
2017004,Jan Denzel D. Mabanglo,2015-10-29
2017006,Shawn Zxander D. Colibao,2014-11-29
2018001,RJAY G. SONGAHID ,2005-02-18
2018001,Rjhon G. Songahid,2008-04-02
2018004,THREISHA MAE E. TUVILLO,2005-08-02
2018004,DECELYN KAYE E. TUVILLO,2006-12-04
2018004,CHARLENE E. TUVILLO,2011-12-29
2018004,AKHIESHA FAITH E. TUVILLO,2015-07-29
2018006,NEMIE JAYLYN U. CANDIL,2017-08-26
2018008,Michael Angelo V. Berces,1988-11-06
2018008,Mark Anthony V. Berces,1991-01-06
2018008,Marie Antonette V. Berces,1994-03-31
2018008,Mico Andrei V. Berces,2000-03-11
