124,155030,29,1
125,73811,23,1
105,46008,19,2
134,109197,26,2
126,15738,7,1
118,21038,11,2
122,25232,13,1
139,15738,7,1
71,18125,9,2
50,137195,28,1
30,107444,26,1
109,15859,7,2
133,107444,26,1
138,65319,22,1
117,15859,7,1
127,40637,18,1
33,73157,22,8
36,44294,18,8
59,109197,26,2
141,107444,26,1
121,40637,18,1
35,73157,22,8
115,66385,22,2
120,41140,18,2
136,15738,7,1
114,46008,19,2
18,69689,22,5
128,137195,28,1
28,73157,22,8
73,16352,7,6
38,120337,26,8
29,73157,22,8
11,41140,18,2
132,15738,7,1
85,40637,18,1
37,70827,22,6
110,15859,7,2
40,107444,26,1
140,65319,22,1
51,44294,18,8
123,137195,28,1
69,16352,7,6
96,53700,20,4
61,36159,16,7
113,58748,21,2
72,16352,7,6
135,40637,18,1
21,69689,22,5
70,16352,7,6
97,22938,12,1
81,55468,20,6
112,30531,15,1
15,40637,18,1
22,15859,7,2
12,120337,26,8
137,15738,7,1
129,73811,23,1
131,57805,21,1
80,107444,26,1