 20010137 , VERZOSA , EMMELINE ,  Executive Director III ,,OFFICE OF THE EXECUTIVE DIRECTOR,,NCRFWB-EXED3-1-1998,09/06/2001,28,5,122031.00,PERMANENT
 20120283 , GUTIERREZ , CECILE ,  Deputy Exec. Director ,,OFFICE OF THE EXECUTIVE DIRECTOR,,NCRFWB-DED3-1-1998,09/16/2012,27,3,106091.00,PERMANENT
 20170433 , BALMES , MARIA KRISTINE JOSEFINA  ,  Deputy Exec. Director ,,OFFICE OF THE EXECUTIVE DIRECTOR,,NCRFWB-DED3-1-2004,06/27/2017,27,1,102910.00,PERMANENT
 20160401 , ETRATA , LOLITA ,   Chief Administrative Officer ,,ADMINISTRATIVE AND FINANCE DIVISION,,NCRFWB-CADOF-9-2004,02/15/2016,24,1,73299.00,PERMANENT
 20170448 , CUEVAS , MAY ZYRA , Attorney III ,,OFFICE OF THE EXECUTIVE DIRECTOR,,NCRFWB-ATY3-1-2016,12/01/2017,21,1,52554.00,PERMANENT
 20180458 , SALDANA , BIANCA , Attorney III ,,OFFICE OF THE EXECUTIVE DIRECTOR,,NCRFWB-ATY3-2-2016,03/05/2018,21,1,52554.00,PERMANENT
 20180464 , CATUBAG , CHARY GRACE , Accountant III ,,ADMINISTRATIVE AND FINANCE DIVISION,,NCRFWB-A3-1-1998,03/08/2015,19,1,42099.00,PERMANENT
 19920038 , ALVIS , RICA  ,  Admin. Officer V ,,ADMINISTRATIVE AND FINANCE DIVISION,,NCRFWB-ADOF5-10-2004,12/21/1992,18,8,41413.00,PERMANENT
 19940044 , TASONG  , MARIA ,  Admin. Officer V ,,ADMINISTRATIVE AND FINANCE DIVISION,,NCRFWB-ADOF5-11-2004,03/16/1994,18,2,38543.00,PERMANENT
 20070174 , CAASI , MARIA THERESA ,  Admin. Officer V ,,ADMINISTRATIVE AND FINANCE DIVISION,,NCRFWB-ADOF5-12-2004,01/08/2013,18,2,38543.00,PERMANENT
 20160400 , MANUEL  , NATHANAEL ,  Accountant II ,,ADMINISTRATIVE AND FINANCE DIVISION,,NCRFWB-A2-1-1998,01/02/2016,16,1,31765.00,PERMANENT
 20070182 , MAANO , LEANDRA ARLENE ,  Admin. Officer III ,,ADMINISTRATIVE AND FINANCE DIVISION,,NCRFWB-ADOF3-14-2004,08/20/2007,14,2,26806.00,PERMANENT
 20090230 , PADAYAO , CLARITA ,  Admin. Officer III ,,ADMINISTRATIVE AND FINANCE DIVISION,,NCRFWB-ADOF3-15-2004,01/02/2015,14,2,26806.00,PERMANENT
 20140343 , RAMIREZ , LISA ,  Senior Admin. Assistant II ,,ADMINISTRATIVE AND FINANCE DIVISION,,NCRFWB-SADAS2-1-2004,07/16/2014,14,2,26806.00,PERMANENT
 20120281 , OBUSAN , JOANN ,  Admin. Assistant II ,,OFFICE OF THE EXECUTIVE DIRECTOR,,NCRFWB-ADAS2-5-2004,02/01/2016,8,1,16282.00,PERMANENT
 19790007 , PUNZALAN   , MICAELA ,  Admin. Assistant II ,,ADMINISTRATIVE AND FINANCE DIVISION,,NCRFWB-ADAS2-6-2004,11/26/1979,8,8,17369.00,PERMANENT
 19830020 , PAPASIN , EMORIE ,  Admin. Assistant II ,,ADMINISTRATIVE AND FINANCE DIVISION,,NCRFWB-ADAS2-7-2004,10/21/1983,8,8,17369.00,PERMANENT
 19900033 , SILVERIO , REY ,  Admin. Assistant I ,,ADMINISTRATIVE AND FINANCE DIVISION,,NCRFWB-ADAS1-6-2004,01/02/1995,7,2,15380.00,PERMANENT
 20120300 , O'CONNOR , BERNADETTE ,  Admin. Aide VI ,,ADMINISTRATIVE AND FINANCE DIVISION,,NCRFWB-ADA6-3-2004,01/18/2013,6,2,14459.00,PERMANENT
 19860022 , ACUNA , VIRGINIA ,  Admin. Aide IV ,,ADMINISTRATIVE AND FINANCE DIVISION,,NCRFWB-ADA4-8-2004,01/10/1996,4,8,13424.00,PERMANENT
 19800008 , GALLANO , ALBERT ,  Admin. Aide IV ,,ADMINISTRATIVE AND FINANCE DIVISION,,NCRFWB-ADA4-13-2004,08/12/1980,4,5,13097.00,PERMANENT
 20140349 ,  SABIO ,  VIRGILIO ,  Admin. Aide IV ,,ADMINISTRATIVE AND FINANCE DIVISION,,NCRFWB-ADA4-14-2004,03/30/2015,4,1,12674.00,PERMANENT
 20180452 , MADOLI , MA. RAESSA ,  Admin. Aide IV ,,ADMINISTRATIVE AND FINANCE DIVISION,,NCRFWB-ADA4-12-2004,01/02/2018,4,1,12674.00,PERMANENT
 20170423 , DE LARA , ALMA ,  Admin. Aide IV ,,ADMINISTRATIVE AND FINANCE DIVISION,,NCRFWB-ADA4-11-2004,01/03/2017,4,1,12674.00,PERMANENT
 19830018 , ABILAY , VIRGILIO ,  Admin. Aide III ,,ADMINISTRATIVE AND FINANCE DIVISION,,NCRFWB-ADA3-15-2004,08/02/1983,3,8,12620.00,PERMANENT
 19950048 , CAPIRAL , ENRIQUE JR. ,  Admin. Aide III ,,ADMINISTRATIVE AND FINANCE DIVISION,,NCRFWB-ADA3-16-2004,03/23/1995,3,8,12620.00,PERMANENT
 20020145 , QUIJANA , ARLYNE ,  Admin. Aide II ,,ADMINISTRATIVE AND FINANCE DIVISION,,NCRFWB-ADA2-8-2004,01/12/2002,2,6,11671.00,PERMANENT
 20030148 , CASTRO ,  HONEY , Information Officer V ,,CORPORATE AFFAIRS AND INFORMATION RESOURCE MANAGEMENT DIVISION,,NCRFWB-INFO5-2-2007,02/17/2003,24,1,73299.00,PERMANENT
 20030155 , ROMERO , ROBERT MATTHEW  ,  Information Officer IV ,,CORPORATE AFFAIRS AND INFORMATION RESOURCE MANAGEMENT DIVISION,,NCRFWB-INFO4-3-2007,06/10/2003,22,2,59597.00,PERMANENT
 20030154 , ATANACIO  , VICKY ,  Info. Tech. Officer I ,,CORPORATE AFFAIRS AND INFORMATION RESOURCE MANAGEMENT DIVISION,,NCRFWB-ITO1-6-2007,02/01/2014,19,2,42730.00,PERMANENT
 20130316 ,  FRANCISCO , ANNE DOMINIQUE ,  Information Officer III ,,CORPORATE AFFAIRS AND INFORMATION RESOURCE MANAGEMENT DIVISION,,NCRFWB-INFO3-1-2008,07/29/2013,18,2,38543.00,PERMANENT
 20140348 , SOTTO , ANNA MARIA ,  Senior Admin. Assistant III ,,CORPORATE AFFAIRS AND INFORMATION RESOURCE MANAGEMENT DIVISION,,NCRFWB-SADAS3-2-2004,04/11/2014,15,2,29359.00,PERMANENT
 20150371 , NATIVIDAD , NICO ,  Info. Systems Analyst II ,,CORPORATE AFFAIRS AND INFORMATION RESOURCE MANAGEMENT DIVISION,,NCRFWB-INFOSA2-7-2007,06/15/2015,16,2,32147.00,PERMANENT
 20130325 , SANTOS  , RAMIL , Planning Officer II ,,CORPORATE AFFAIRS AND INFORMATION RESOURCE MANAGEMENT DIVISION,,NCRFWB-PLO2-4-2016,02/11/2017,15,1,29010.00,PERMANENT
 20130320 , ESQUIBAL , MARY GLADYS , Information System Analyst I ,,CORPORATE AFFAIRS AND INFORMATION RESOURCE MANAGEMENT DIVISION,,NCRFWB-INFOSA1-6-2016,01/02/2018,12,1,22149.00,PERMANENT
 19960053 , PASCUAL , JONATHAN  ,  Librarian I ,,CORPORATE AFFAIRS AND INFORMATION RESOURCE MANAGEMENT DIVISION,,NCRFWB-LIB1-1-2007,01/10/1996,11,4,20963.00,PERMANENT
 20120298 , VILLALUNA , MARICAR , Planning Officer I ,,CORPORATE AFFAIRS AND INFORMATION RESOURCE MANAGEMENT DIVISION,,NCRFWB-PLO1-5-2016,01/18/2013,11,1,20179.00,PERMANENT
 20070181 , OSANA , HELEN ,   Admin. Assistant III ,,CORPORATE AFFAIRS AND INFORMATION RESOURCE MANAGEMENT DIVISION,,NCRFWB-ADAS3-5-2004,08/27/2007,9,1,17627.00,PERMANENT
 19880029 , GARMINO , RICARDO ,  Admin. Aide VI ,,CORPORATE AFFAIRS AND INFORMATION RESOURCE MANAGEMENT DIVISION,,NCRFWB-ADA6-5-2004,01/08/1988,6,4,14699.00,PERMANENT
 19980070 ,  MILLAR , NHARLEEN , Chief GAD Specialist ,,POLICY DEVELOPMENT PLANNING MONITORING AND EVALUATION DIVISION,,NCRFWB-CGAD-7-2016,03/16/1998,24,3,75512.00,PERMANENT
 20110253 ,  SASUMAN , JOSEPHINE KHALEEN , Supervising GAD Specialist ,,POLICY DEVELOPMENT PLANNING MONITORING AND EVALUATION DIVISION,,NCRFWB-SVGAD-6-2016,01/03/2013,22,2,59597.00,PERMANENT
 20120273 ,  BAYLOSIS , MA. REBECCA RAFAELA  , Supervising GAD Specialist ,,POLICY DEVELOPMENT PLANNING MONITORING AND EVALUATION DIVISION,,NCRFWB-SVGAD-7-2016,04/06/2012,22,1,58717.00,PERMANENT
 20150375 , BRIGOLA , MARIA JANICA , Senior GAD Specialist ,,POLICY DEVELOPMENT PLANNING MONITORING AND EVALUATION DIVISION,,NCRFWB-SRGAD-6-2016,01/01/2017,18,1,38085.00,PERMANENT
 19990113 , SAN JUAN , CLEHENIA AURORA , Senior GAD Specialist ,,POLICY DEVELOPMENT PLANNING MONITORING AND EVALUATION DIVISION,,NCRFWB-SRGAD-8-2016,11/14/2014,18,1,38085.00,PERMANENT
 20160410 , AREVALO , AVERY SILK , Senior GAD Specialist ,,POLICY DEVELOPMENT PLANNING MONITORING AND EVALUATION DIVISION,,NCRFWB-SRGAD-7-2016,02/26/2018,18,1,38085.00,PERMANENT
 20070187 , LAGUMBAY , ANASTACIO JR. , GAD Specialist II ,,POLICY DEVELOPMENT PLANNING MONITORING AND EVALUATION DIVISION,,NCRFWB-GAD2-4-2016,09/28/2007, 15 ,6,30799.00,PERMANENT
 20150362 ,  LEE , KRISTINE ANNE  , GAD Specialist II ,,POLICY DEVELOPMENT PLANNING MONITORING AND EVALUATION DIVISION,,NCRFWB-GAD2-8-2016,07/04/2015, 15 ,1,29010.00,PERMANENT
 20150352 , ORCILLA , ARMANDO  , GAD Specialist II ,,POLICY DEVELOPMENT PLANNING MONITORING AND EVALUATION DIVISION,,NCRFWB-GAD2-3-2016,02/11/2017, 15 ,1,29010.00,PERMANENT
 20170443 , ABIOG , ANIKA HANNA , GAD Specialist II ,,POLICY DEVELOPMENT PLANNING MONITORING AND EVALUATION DIVISION,,NCRFWB-GAD2-6-2016,08/11/2017, 15 ,1,29010.00,PERMANENT
 20160409 , RAYA ,  VINNA ABEGAIL , GAD Specialist II ,,POLICY DEVELOPMENT PLANNING MONITORING AND EVALUATION DIVISION,,NCRFWB-GAD2-5-2016,03/23/2016, 15 ,1,29010.00,PERMANENT
 20170437 , MALUYA , JENNYLIN , GAD Specialist II ,,POLICY DEVELOPMENT PLANNING MONITORING AND EVALUATION DIVISION,,NCRFWB-GAD2-7-2016,01/06/2018, 15 ,1,29010.00,PERMANENT
 20150389 ,  BUAN , RICHELLE ANN , Planning Assistant ,,POLICY DEVELOPMENT PLANNING MONITORING AND EVALUATION DIVISION,,NCRFWB-PLA-1-1998,07/09/2015, 8 ,1,16282.00,PERMANENT
 20140347 , TIAUZON , JOMAY , Admin Aide IV ,,POLICY DEVELOPMENT PLANNING MONITORING AND EVALUATION DIVISION,,NCRFWB-ADA4-17-2004,08/03/2018, 4 ,1,12674.00,PERMANENT
 19900034 , BALEDA , ANITA  , Chief GAD Specialist ,,TECHNICAL SERVICES AND REGIONAL DIVISION,,NCRFWB-CGAD-6-2016,04/25/1988, 24 ,2,74397.00,PERMANENT
 20070169 , DULAWAN , JEANETTE , Supervising GAD Specialist ,,TECHNICAL SERVICES AND REGIONAL DIVISION,,NCRFWB-SVGAD-5-2016,09/05/2011, 22 ,3,60491.00,PERMANENT
 20170446 , MAZO , RAYMOND JAY , Supervising GAD Specialist ,,TECHNICAL SERVICES AND REGIONAL DIVISION,,NCRFWB-SVGAD-8-2016,01/12/2017, 22 ,1,58717.00,PERMANENT
 20070165 ,  DAGNALAN , KAREN , Senior GAD Specialist ,,POLICY DEVELOPMENT PLANNING MONITORING AND EVALUATION DIVISION,,NCRFWB-SRGAD-5-2016,01/09/2007, 18 ,3,39007.00,PERMANENT
 20150372 , TEODORO , KIMBERLY ANNE , Senior GAD Specialist ,,TECHNICAL SERVICES AND REGIONAL DIVISION,,NCRFWB-SRGAD-4-2016,01/03/2016, 19 ,1,38085.00,PERMANENT
 20120287 , PEJI , KIM HAROLD , Senior GAD Specialist ,,TECHNICAL SERVICES AND REGIONAL DIVISION,,NCRFWB-SRGAD-10-2016,01/07/2014, 20 ,1,38085.00,PERMANENT
 20170442 , HUFANCIA , RONALYN , Senior GAD Specialist ,,TECHNICAL SERVICES AND REGIONAL DIVISION,,NCRFWB-SRGAD-9-2016,02/11/2017, 21 ,1,38085.00,PERMANENT
 20180451 , BELLIN ,  JOCELYN , Senior GAD Specialist ,,TECHNICAL SERVICES AND REGIONAL DIVISION,,NCRFWB-SRGAD-3-2016,02/26/2018, 22 ,1,38085.00,PERMANENT
 20160419 , OMAS-AS  , ELIZABETH , GAD Specialist II ,,TECHNICAL SERVICES AND REGIONAL DIVISION,,NCRFWB-GAD2-2-2016,11/07/2016, 15 ,1,29010.00,PERMANENT
 20170445 , ASENCIO , PSYCHE MAE , GAD Specialist II ,,TECHNICAL SERVICES AND REGIONAL DIVISION,,NCRFWB-GAD2-9-2016,02/11/2017, 16 ,1,29010.00,PERMANENT
 20180453 , MANGA , RHODORA ANGELINE , GAD Specialist II ,,TECHNICAL SERVICES AND REGIONAL DIVISION,,NCRFWB-GAD2-1-2016,02/26/2018, 17 ,1,29010.00,PERMANENT
 20030146 ,  ABDON , ALETHA  ,  Admin. Aide IV ,,TECHNICAL SERVICES AND REGIONAL DIVISION,,NCRFWB-ADA4-16-2004,03/03/1982, 4 ,6,13206.00,PERMANENT
 20130303 ,  JUSAYAN , MACARIO , Chief GAD Specialist ,,SECTORAL COORDINATION DIVISION,,NCRFWB-CGAD-8-2016,01/14/2013, 24 ,2,74397.00,PERMANENT
 20080195 ,  DELGADO , MARIANNE KRISTINE , Supervising GAD Specialist ,,SECTORAL COORDINATION DIVISION,,NCRFWB-SVGAD-9-2016,01/07/2012, 22 ,1,58717.00,PERMANENT
 20150370 ,  SUSARA , PAMELA C , Supervising GAD Specialist ,,SECTORAL COORDINATION DIVISION,,NCRFWB-SVGAD-10-2016,01/01/2018, 23 ,1,58717.00,PERMANENT
 20140344 ,  CHUCK , SILAYAN TERESITA , Senior GAD Specialist ,,SECTORAL COORDINATION DIVISION,,NCRFWB-SRGAD-12-2016,01/08/2014, 18 ,1,38085.00,PERMANENT
 20120277 ,  CORRAL , MILDRED , Senior GAD Specialist ,,SECTORAL COORDINATION DIVISION,,NCRFWB-SRGAD-11-2016,06/18/2012, 19 ,1,38085.00,PERMANENT
 20170441 , ESTURAS , CLAIRE RUZZEL , GAD Specialist II ,,SECTORAL COORDINATION DIVISION,,NCRFWB-GAD2-12-2016,06/11/2017, 15 ,1,29010.00,PERMANENT
 20170434 , GANDEZA , RENE JR , GAD Specialist II ,,SECTORAL COORDINATION DIVISION,,NCRFWB-GAD2-11-2016,02/11/2017, 15 ,1,29010.00,PERMANENT
 20180473 , RODRIGUEZ , BERNADETTE  , GAD Specialist II ,,SECTORAL COORDINATION DIVISION,,NCRFWB-GAD2-13-2016,06/08/2018, 15 ,1,29010.00,PERMANENT
20180001, BELO , BLESILDA  ,LIBRARIAN II ,,CORPORATE AFFAIRS AND INFORMATION RESOURCE MANAGEMENT DIVISION,,NCRFWB-LIB2-1-1998,01/22/2008, 15 ,4,30071.00,PERMANENT
20180002,MARIANO,APRIL MAE ANNE,GAD SPECIALIST II,,SECTORAL COORDINATION DIVISION,,NCRFWB-GAD2-14-2016,01/10/2018, 15 ,1,29010.00,PERMANENT
20180003,GARCIA,ROSEMARIE,ADMINISTRATIVE OFFICER III,,ADMINISTRATIVE AND FINANCE DIVISION,,NCRFWB-ADOF3-13-2004,01/10/1978,14,8,28759.00,PERMANENT
 COS001 , Gutlay , Katherine , Information Officer II  ,,,,,,,,1582.36,CONTRACT OF SERVICE
 COS002 , Reyes , Trisha Yverie  , Information Officer II  ,,,,,,,,1582.36,CONTRACT OF SERVICE
 COS003 , Garcia , Louise  , Information Officer I ,,,,,,,,1100.66,CONTRACT OF SERVICE
 COS004 , Gajelomo , Roberto , Senior Admin Asst.I ,,,,,,,,1321.31,CONTRACT OF SERVICE
 COS005 , Aliliran , Karen , Web Content Writer ,,,,,,,,2077.36,CONTRACT OF SERVICE
 COS006 , Torres , April Norms  , Information Officer II  ,,,,,,,,1582.36,CONTRACT OF SERVICE
 COS007 , Rivas , Liane May , Planning Officer III ,,,,,,,,2077.36,CONTRACT OF SERVICE
 COS008 , Fama , Vanessa , Administrative Assistant IV ,,,,,,,,1020.98,CONTRACT OF SERVICE
 COS009 , Caisip , Laurient Yves , Conference Coordinator ,,,,,,,,3202.75,CONTRACT OF SERVICE
 COS010 , Golez , Joey , Administrative Aide VI ,,,,,,,,782.18,CONTRACT OF SERVICE
 COS011 , CariNo , Patrick Gregory , Admin Aide IV ,,,,,,,,691.31,CONTRACT OF SERVICE
 COS012 , Rivera , Katherine , HRMO II ,,,,,,,,1582.36,CONTRACT OF SERVICE
 COS013 , Serioza , Kimberly Kristine , HRMO II ,,,,,,,,1582.36,CONTRACT OF SERVICE
 COS014 , Helzano , Ana Marie  , Admin Assistant II ,,,,,,,,888.11,CONTRACT OF SERVICE
 COS015 , Navarro , Adelaida  , Admin Aide IV ,,,,,,,,691.31,CONTRACT OF SERVICE
 COS016 , Oliveros , Oliver  , Administrative Aide IV ,,,,,,,,691.31,CONTRACT OF SERVICE
 COS017 , Vanzuela , Marlazel  , Admin Aide IV ,,,,,,,,691.31,CONTRACT OF SERVICE
 COS018 , De Jesus , Ronald Allan , Administrative Aide VI ,,,,,,,,782.18,CONTRACT OF SERVICE