1,11-001,2011-01-15
3,015574,2010-08-09
4,015565,2008-11-03
9,015556,2008-08-16
10,015485,2000-11-20
11,014401,1988-05-01
12,015487,2001-02-01
13,015558,2008-09-01
14,015397,1995-05-09
15,020500,2006-04-05
16,012050,1987-05-12
18,015518,2003-07-07
19,015377,1985-04-15
20,015576,2010-09-23
21,015575,2010-09-01
22,015552,2008-05-15
23,015199,1987-05-12
24,013307,1981-02-01
25,013803,1987-07-01
30,010901,1987-05-12
31,015503,2002-05-29
32,015568,2009-05-04
34,015555,2008-07-10
35,015432,1997-03-25
36,015511,2010-01-18
37,015481,2000-08-14
38,015581,2011-03-29
39,015430,1999-11-29
40,015540,2007-03-16
41,013102,1980-07-01
42,013145,1996-10-01
43,015462,2003-07-21
44,015567,2009-02-03
45,015539,2007-02-26
46,012408,1987-05-12
47,015483,2000-10-20
48,015553,2008-06-24
49,010065,1978-06-23
50,015522,2004-03-24
51,015546,2007-07-02
52,010090,1988-07-01
53,015391,1995-03-01
54,015470,1999-11-29
55,015434,1998-03-02
56,015410,1999-11-29
57,015512,2003-01-27
58,015566,2009-01-26
59,011045,1996-10-01
60,010472,1996-10-01
61,015560,2008-09-16
62,015569,2009-05-19
64,015379,1994-03-16
66,010707,1987-05-12
67,013552,1987-07-01
68,015439,1991-12-02
69,015486,2000-12-04
70,012475,1992-09-15
71,010120,1993-05-15
72,015534,2005-09-05
74,015572,2010-02-01
75,012831,1993-05-15
78,013404,1987-05-12
79,014605,1986-05-01
80,012360,1990-01-16
89,013455,1992-11-03
90,015564,2008-09-22
92,015529,2005-06-01
93,015172,1987-05-12
96,015506,2002-10-24
97,015561,2008-09-16
98,012769,1992-08-01
99,015549,2007-09-28
100,015559,2008-09-01
103,010880,1999-11-16
105,015492,2001-03-26
106,014508,1982-10-11
109,015472,2000-05-16
110,015577,2011-01-01
111,015750,2005-09-01
112,015551,2008-05-01
113,010235,1997-10-06
114,012700,1982-04-01
115,019500,2006-04-30
116,015547,2007-09-10
117,011606,1978-07-01
121,015542,2007-03-29
125,015583,2011-06-01
127,015507,2002-12-16
128, 015584,2011-06-15
129,015582,2011-05-02
131,015585,2011-07-04
133,015586,2011-08-03
134,015587,2011-08-15
139,015588,2011-11-16
140,015589,2012-01-16
141,015590,2012-01-24
142,015591,2012-02-15
143,015592,2012-06-01
144,015593,2012-08-01
145,015594,2012-08-28
146,015595,2012-09-03
147,015596,2012-09-05
148,015597,2012-10-01
149,015598,2012-10-03
150,015599,2012-10-10
151,015600,2012-10-15
152,015601,2012-10-16
153,015602,2012-11-05
154,015603,2013-02-13
155,015604,2013-02-25
156,015605,2013-03-18
157,015606,2013-03-25
159,015607,2013-07-10
160,015608,2013-09-09
161,015609,2013-09-09
162,015610,2013-12-11
163,015611,2014-01-06
164,015612,2014-02-03
165,015613,2014-03-03
166,015614,2014-06-18
167,015615,2014-07-01
168,015616,2014-08-04
169,015617,2014-08-13
170,015618,2014-08-18
171,015619,2014-08-20
172,015620,2014-09-01
173,015621,2014-09-22
174,015622,2014-09-29
175,015623,2014-10-16
176,015624,2014-11-03
177,015625,2014-11-10
178,015626,2014-11-26
179,015627,2015-01-05
180,015628,2015-01-13
181,015629,2015-03-16
182,015630,2015-03-17
183,015631,2015-03-25
184,015632,2015-05-04
185,015633,2015-06-02
186,015634,2015-06-09
187,015635,2015-06-15
188,015636,2015-07-06
189,015637,2015-08-04
190,015638,2015-09-22
191,015639,2015-10-12
192,015640,2015-10-19
193,015641,2016-03-01
194,015642,2016-06-06
195,015643,2016-07-04
196,015644,2016-08-08
197,015645,2016-08-22
198,015646,2016-10-11
199,015647,2016-12-19
200,015648,2017-01-09
201,015649,2017-02-06
202,015650,2017-03-01
203,015650,2017-03-06
204,015650,2017-03-06
205,015650,2017-03-06
206,015651,2017-03-06
207,015652,2017-04-03
208,015653,2017-04-24
209,015654,2017-06-01
210,015655,2017-06-01
212,015656,2017-06-19
213,015657,2017-06-21
214,015658,2017-07-10
215,015659,2017-08-07
216,015660,2017-08-16
220,015661,2017-10-02
221,015662,2017-10-18
222,015663,2018-01-08
223,015664,2018-01-15
224,015665,2018-01-16
225,015666,2018-01-24
231,T7-001,2018-04-01
232,T7-002,2018-04-01
233,T7-003,2018-04-01
234,AC-001,2018-04-01
235,AC-002,2018-04-01
236,AC-003,2018-04-01
237,2018-01,2018-01-01
238,015667,2018-04-05
239,015668,2018-04-12
240,015669,2018-05-02
242,T7-004,2018-05-14
243,015670,2018-07-09
244,015671,2018-08-14
245,015672,2018-08-22
246,015673,2018-09-03
