ID No.,VL,SL,FL,SPL,,,,,,,,
P2017-0092,24.573,22.375,3,1,,,,,,,,
P2017-0116,64.975,65.250,0,2,,,,,,,,
P2017-0175,9.583,12.583,0,3,,,,,,,,
P2016-0022,6.699,19.042,0,0,,,,,,,,
P2017-0118,6.350,2.250,0,0,,,,,,,,
P2017-0106,14.647,15.750,0,0,,,,,,,,
P2017-0110,6.077,17.708,0,0,,,,,,,,
P2017-0129,0.000,11.279,0,0,,,,,,,,
P2016-0066,28.124,58.875,0,0,,,,,,,,
P2018-0178,8.125,10.125,0,1,,,,,,,,
P2016-0071,19.837,71.363,0,1,,,,,,,,
P2016-0059,11.255,27.667,0,0,,,,,,,,
P2016-0062,19.055,27.500,0,1,,,,,,,,
P2017-0143,13.493,16.451,0,0,,,,,,,,
P2017-0101,3.521,1.250,0,0,,,,,,,,
P2017-0090,21.625,25.625,0,3,,,,,,,,
P2017-0105,15.669,81.750,0,3,,,,,,,,
P2016-0044,61.767,76.834,0,1,,,,,,,,
P2016-0001,12.500,24.000,0,3,,,,,,,,
P2016-0075,12.356,5.500,0,2,,,,,,,,
P2017-0113,2.166,19.417,0,0,,,,,,,,
P2016-0082,12.751,20.792,0,0,,,,,,,,
P2016-0013,5.250,14.280,0,0,,,,,,,,
P2017-0156,18.863,17.208,0,1,,,,,,,,
P2016-0036,7.207,8.414,0,0,,,,,,,,
P2017-0173,5.921,14.000,0,0,,,,,,,,
P2017-0172,56.950,68.833,0,0,,,,,,,,
P2016-0002,21.000,40.000,0,1,,,,,,,,
P2017-0097,33.404,49.834,0,3,,,,,,,,
P2017-0114,37.572,89.374,0,2,,,,,,,,
P2016-0039,2.642,0.000,0,0,,,,,,,,
P2016-0026,2.744,6.000,0,0,,,,,,,,
P2016-0029,8.043,13.000,0,0,,,,,,,,
P2016-0052,5.289,18.667,0,2,,,,,,,,
P2017-0087,6.926,14.167,0,0,,,,,,,,
P2017-0168,3.922,8.542,0,0,,,,,,,,
P2016-0056,8.250,12.708,0,0,,,,,,,,
P2018-0191,0.000,5.208,0,0,,,,,,,,
P2018-0194,4.566,4.000,0,2,,,,,,,,
P2016-0027,14.215,10.792,0,3,,,,,,,,
P2018-0195,4.127,3.583,0,3,,,,,,,,
P2017-0119,6.487,14.792,0,3,,,,,,,,
P2017-0146,5.286,18.345,0,0,,,,,,,,
P2018-0181,3.654,1.875,0,3,,,,,,,,
P2017-0131,3.286,4.833,0,2,,,,,,,,
P2016-0068,7.748,42.542,0,0,,,,,,,,
P2017-0166,8.034,5.125,0,0,,,,,,,,
P2016-0051,4.379,19.000,0,0,,,,,,,,
P2017-0085,11.469,26.208,0,1,,,,,,,,
P2016-0006,13.250,27.750,0,0,,,,,,,,
P2016-0057,8.930,35.583,0,0,,,,,,,,
P2016-0024,11.792,58.770,0,1,,,,,,,,
P2016-0031,4.674,13.458,0,2,,,,,,,,
P2016-0055,16.708,28.708,0,0,,,,,,,,
P2017-0167,6.640,11.833,0,2,,,,,,,,
P2016-0023,8.646,18.646,0,0,,,,,,,,
P2017-0121,16.882,13.208,0,1,,,,,,,,
P2017-0138,15.092,18.311,0,1,,,,,,,,
P2016-0074,6.305,25.500,0,3,,,,,,,,
P2017-0115,12.630,3.125,0,1,,,,,,,,
P2017-0112,10.911,8.125,0,1,,,,,,,,
P2016-0054,7.864,14.125,0,1,,,,,,,,
P2016-0064,11.465,12.958,0,0,,,,,,,,
P2016-0083,59.520,91.167,0,0,,,,,,,,
P2016-0078,9.717,24.375,0,0,,,,,,,,
P2017-0152,7.421,8.333,0,3,,,,,,,,
P2016-0072,45.293,208.898,0,1,,,,,,,,
P2018-0185,7.318,7.458,0,1,,,,,,,,
P2017-0169,12.229,10.542,3,1,,,,,,,,
P2016-0073,31.553,90.460,0,3,,,,,,,,
P2016-0053,35.316,34.208,0,0,,,,,,,,
P2017-0153,62.335,71.833,0,1,,,,,,,,
P2017-0163,10.050,10.542,0,3,,,,,,,,
P2017-0094,7.921,16.417,0,0,,,,,,,,
P2018-0180,3.761,7.167,3,0,,,,,,,,
P2017-0133,15.779,18.458,0,3,,,,,,,,
P2017-0161,16.768,24.333,3,0,,,,,,,,
P2017-0095,17.629,21.375,0,2,,,,,,,,
P2016-0070,19.188,25.250,0,,,,,,,,,
P2016-0045,310.051,321.546,0,3,,,,,,,,
P2017-0165,7.771,12.333,0,0,,,,,,,,
P2017-0100,21.975,18.500,0,0,,,,,,,,
P2016-0048,11.083,14.750,0,0,,,,,,,,
P2016-0041,13.779,18.000,0,,,,,,,,,
P2016-0034,12.843,56.606,0,1,,,,,,,,
P2017-0170,5.936,8.125,0,2,,,,,,,,
P2017-0128,9.000,20.000,0,0,,,,,,,,
P2017-0151,0,13.667,0,0,,,,,,,,
P2017-0123,14.016,12.625,0,2,,,,,,,,
P2017-0158,13.304,14.958,0,1,,,,,,,,
P2017-0127,10.000,19.000,0,3,,,,,,,,
P2017-0109,4.919,19.833,0,0,,,,,,,,
P2017-0102,21.603,19.333,0,0,,,,,,,,
P2017-0150,13.246,12.375,0,2,,,,,,,,
P2016-0049,15.557,26.083,0,0,,,,,,,,
P2017-0135,14.811,4.417,0,2,,,,,,,,
P2017-0096,38.807,72.042,0,3,,,,,,,,
P2016-0021,12.908,22.250,0,1,,,,,,,,
P2017-0088,21.383,17.875,0,0,,,,,,,,
P2018-0192,5.647,5.208,0,2,,,,,,,,
P2018-0190,6.792,6.792,0,1,,,,,,,,
P2016-0042,16.741,43.738,0,2,,,,,,,,
P2016-0060,8.238,18.500,0,3,,,,,,,,
P2016-0025,66.341,80.403,0,2,,,,,,,,
P2016-0009,12.283,74.372,0,0,,,,,,,,
