1,9981,10072,10165,10258,10352,10453,10543,10640
2,10667,10761,10856,10952,11049,11147,11245,11345
3,11387,11488,11589,11691,11795,11899,12004,12110
4,12155,12262,12371,12480,12591,12702,12814,12927
5,12975,13117,13206,13322,13440,13559,13679,13799
6,13851,13973,14096,14221,14347,14474,14602,14731
7,14785,14916,15048,15181,15315,15450,15587,15725
8,15818,15969,16121,16275,16430,16586,16744,16903
9,16986,17142,17299,17458,17618,17780,17943,18108
10,18217,18385,18553,18724,18896,19095,19244,19421
11,19620,19853,20088,20326,20567,20811,21058,21307
12,21387,21626,21868,22113,22361,22611,22864,23120
13,23257,23517,23780,24047,24315,24587,24863,25141
14,25290,25573,25859,26149,26441,26737,27036,27339
15,27565,27887,28214,28544,28877,29214,29557,29902
16,30044,30396,30751,31111,31474,31843,32215,32592
17,32747,33131,33518,33909,34306,34707,35113,35524
18,35693,36111,36532,36960,37392,37829,38272,38719
19,39151,39685,40227,40776,41333,41898,42470,43051
20,43250,43841,44440,45047,45662,46285,46917,47559
21,47779,48432,49094,49764,50443,51132,51831,52539
22,52783,53503,54234,54975,55726,56487,57285,58040
23,58310,59106,59913,60732,61561,62402,63255,64118
24,64416,65296,66187,67092,68008,68937,69878,70832
25,71476,72452,73441,74444,75641,76491,77536,78595
26,78960,80039,81132,82240,83363,84502,85657,86825
27,87229,88420,89628,90852,92093,93351,94625,95925
28,96363,97679,99013,100366,101736,103126,104534,105962
29,106454,107908,109382,110875,112390,113925,115481,117058
30,117601,119208,120836,122486,124159,125855,127573,129316
31,152325,154649,157008,159404,161836,164305,166812,169357
32,177929,180700,183513,186372,189274,192221,195215,198255
33,215804,222278,0,0,0,0,0,0