{
	"R1": {
		"FileName":"rpt_Service_Record_21",
		"Name":"Service Record",
		"SystemRefId":1,
		"Owner":"E2E",
		"ExtType":"php"
	},
	"2": {
		"FileName":"rpt_Scholarship_21",
		"Name":"Report On Scholarship",
		"SystemRefId":1,
		"Owner":"E2E",
		"ExtType":"php"
	},
	"3": {
		"FileName":"rpt_Training_Of_Staff_21",
		"Name":"Report On Training of Staff",
		"SystemRefId":1,
		"Owner":"E2E",
		"ExtType":"php"
	},
	"4": {
		"FileName":"rpt_Foreign_Training_And_Travel_21",
		"Name":"Report On Foreign Training and Travel",
		"SystemRefId":1,
		"Owner":"E2E",
		"ExtType":"php"
	},
	"5": {
		"FileName":"form_Correction_Of_Name_21",
		"Name":"Certification For Correction of Name",
		"SystemRefId":1,
		"Owner":"E2E",
		"ExtType":"php"
	},
	"6": {
		"FileName":"form_Certification_On_Same_Person_21",
		"Name":"Certification For One And The Same Person",
		"SystemRefId":1,
		"Owner":"E2E",
		"ExtType":"php"
	},
	"7": {
		"FileName":"form_Clearance_Certificate_21",
		"Name":"Clearance Certificate",
		"SystemRefId":1,
		"Owner":"E2E",
		"ExtType":"php"
	},
	"8": {
		"FileName":"form_Medical_Certificate_21",
		"Name":"Form 211 Medical Certificate",
		"SystemRefId":1,
		"Owner":"E2E",
		"ExtType":"php"
	},
	"9": {
		"FileName":"form_Medical_Certificate_Doc_21",
		"Name":"Medical Certificate",
		"SystemRefId":1,
		"Owner":"E2E",
		"ExtType":"php"
	},
	"10": {
		"FileName":"rpt_Authority_To_Render_Overtime_Services_21",
		"Name":"Authority To Render Overtime (OT) Services",
		"SystemRefId":2,
		"Owner":"E2E",
		"ExtType":"php"
	},
	"11": {
		"FileName":"rpt_Overtime_Services_Rendereed_21",
		"Name":"Certificate of Overtime Services Rendered",
		"SystemRefId":2,
		"Owner":"E2E",
		"ExtType":"php"
	},
	"12": {
		"FileName":"rpt_Certification_LWOP_21",
		"Name":"Certification of Leave Without Pay",
		"SystemRefId":2,
		"Owner":"E2E",
		"ExtType":"php"
	},
	"13": {
		"FileName":"rpt_Leave_Card_21",
		"Name":"Employees Leave Card",
		"SystemRefId":2,
		"Owner":"E2E",
		"ExtType":"php"
	},
	"14": {
		"FileName":"rpt_Flag_Raising_21",
		"Name":"DOST Flag Raising Ceremony Attendance Sheet",
		"SystemRefId":2,
		"Owner":"E2E",
		"ExtType":"php"
	},
	"15": {
		"FileName":"rpt_Summary_Flag_Raising_21",
		"Name":"Summary of Flag Raising Ceremony",
		"SystemRefId":2,
		"Owner":"E2E",
		"ExtType":"php"
	},
	"16": {
		"FileName":"rpt_Summary_Flag_Lowering_21",
		"Name":"Summary of Flag Lowering Ceremony",
		"SystemRefId":2,
		"Owner":"E2E",
		"ExtType":"php"
	},
	"17": {
		"FileName":"rpt_Leave_Application_21",
		"Name":"Application For Leave",
		"SystemRefId":2,
		"Owner":"E2E",
		"ExtType":"php"
	},
	"18": {
		"FileName":"rpt_Flag_Lowering_21",
		"Name":"DOST Flag Lowering Ceremony Attendance Sheet",
		"SystemRefId":2,
		"Owner":"E2E",
		"ExtType":"php"
	},
	"19": {
		"FileName":"rpt_Sick_Leave_Monitory_21",
		"Name":"Individual Sick Leave Monitoring",
		"SystemRefId":2,
		"Owner":"E2E",
		"ExtType":"php"
	},
	"20": {
		"FileName":"rpt_Sick_Leave_Audit_Summary_21",
		"Name":"Sick Leave Audit Summary Report",
		"SystemRefId":2,
		"Owner":"E2E",
		"ExtType":"php"
	},
	"21": {
		"FileName":"rpt_PSIPOP_21",
		"Name":"Personal Serivces Itemization And Plantilla Of Personnel (PSIPOP)",
		"SystemRefId":1,
		"Owner":"E2E",
		"ExtType":"php"
	},
	"22": {
		"FileName":"rpt_COC_Certificate_21",
		"Name":"Certificate of COC Earned",
		"SystemRefId":2,
		"Owner":"E2E",
		"ExtType":"php"
	},
	"23": {
		"FileName":"rpt_LWOP_21",
		"Name":"Employees Leave Without Pay",
		"SystemRefId":2,
		"Owner":"E2E",
		"ExtType":"php"
	},
	"24": {
		"FileName":"rpt_Tardiness_21",
		"Name":"Report on Tardiness",
		"SystemRefId":2,
		"Owner":"E2E",
		"ExtType":"php"
	},
	"25": {
		"FileName":"rpt_Approved_OT_With_Pay_21",
		"Name":"Summary of Approved Overtime Services With Pay",
		"SystemRefId":2,
		"Owner":"E2E",
		"ExtType":"php"
	},
	"26": {
		"FileName":"rpt_Request_CTO_21",
		"Name":"Request for Compensatory Time-Off (CTO)",
		"SystemRefId":2,
		"Owner":"E2E",
		"ExtType":"php"
	},
	"27": {
		"FileName":"rpt_Leave_Credits_Summary_21",
		"Name":"Summary Of Leave Credits",
		"SystemRefId":2,
		"Owner":"E2E",
		"ExtType":"php"
	},
	"28": {
		"FileName":"rpt_Request_Of_Monetization_21",
		"Name":"Request of Monetization of Leave Credits",
		"SystemRefId":2,
		"Owner":"E2E",
		"ExtType":"php"
	}
	
}