{
	"R1": {
		"FileName":"rpt_MonthDTR_2",
		"Name":"Checking of Monthly Attendance",
		"SystemRefId":2,
		"Owner":"E2E",
		"ExtType":"php",
		"For":"AttendanceDateCriterias"
	},
	"2": {
		"FileName":"rpt_New_Leave_Card_35",
		"Name":"Leave Card 2019 Edition",
		"SystemRefId":2,
		"Owner":"E2E",
		"ExtType":"php",
		"For":"AttendanceDateCriterias"
	},
	"3": {
		"FileName":"rpt_Leave_Card_21",
		"Name":"Leave Card MIRDC",
		"SystemRefId":2,
		"Owner":"E2E",
		"ExtType":"php",
		"For":"AttendanceDateCriterias"
	},
	"4": {
		"FileName":"rpt_Overtime_28",
		"Name":"Authority for Overtime Services",
		"SystemRefId":2,
		"Owner":"E2E",
		"ExtType":"php"	
	},
	"5": {
		"FileName":"rpt_Overtime_Services_Rendered_28",
		"Name":"Report on Overtime Services Rendered",
		"SystemRefId":2,
		"Owner":"E2E",
		"ExtType":"php"	
	},
	"6": {
		"FileName":"rpt_Overtime_Statement_28",
		"Name":"Statement on Overtime Services",
		"SystemRefId":2,
		"Owner":"E2E",
		"ExtType":"php"	
	},
	"7": {
		"FileName":"rpt_Summary_CTO_COC_28",
		"Name":"Summary of CTOs and COCs",
		"SystemRefId":2,
		"Owner":"E2E",
		"ExtType":"php"	
	}
}