{
	"1": {
		"FileName":"rpt_Employee_MasterList",
		"Name":"Employee Masterlist of Active Employees",
		"SystemRefId":1,
		"Owner":"E2E",
		"ExtType":"php"	
	},
	"2": {
		"FileName":"rpt_Hired_Promoted_Employees",
		"Name":"Hired/Promoted Employees Report",
		"SystemRefId":1,
		"Owner":"E2E",
		"ExtType":"php"	
	},
	"3": {
		"FileName":"rpt_Inactive_Employees",
		"Name":"List of Inactive Employees",
		"SystemRefId":1,
		"Owner":"E2E",
		"ExtType":"php"	
	},
	"4": {
		"FileName":"rpt_Service_Record_35",
		"Name":"Service Record",
		"SystemRefId":1,
		"Owner":"E2E",
		"ExtType":"php"	
	},
	"5": {
		"FileName":"rpt_Attendance_35",
		"Name":"Report of Attendance",
		"SystemRefId":2,
		"Owner":"E2E",
		"ExtType":"php"	
	},
	"6": {
		"FileName":"rpt_COC_Earned_35",
		"Name":"Certificate of Compensatory Overtime Credit (COC) Earned",
		"SystemRefId":2,
		"Owner":"E2E",
		"ExtType":"php"	
	},
	"7": {
		"FileName":"rpt_COC_CTO_Certificate_35",
		"Name":"Certificate of Compensatory Overtime Credit (COC) /Compensatory Time Off (CTO) Summary",
		"SystemRefId":2,
		"Owner":"E2E",
		"ExtType":"php"	
	},
	"8": {
		"FileName":"rpt_OT_Form_35",
		"Name":"Request for Authority to Render Overtime Form",
		"SystemRefId":2,
		"Owner":"E2E",
		"ExtType":"php"	
	},
	"9": {
		"FileName":"rpt_NOSI_35",
		"Name":"Notice of Salary Step Increment",
		"SystemRefId":1,
		"Owner":"E2E",
		"ExtType":"php"	
	},
	"10": {
		"FileName":"rpt_NOSA_35",
		"Name":"Notice of Salary Adjustment",
		"SystemRefId":1,
		"Owner":"E2E",
		"ExtType":"php"	
	},
	"11": {
		"FileName":"rpt_Leave_Card_35",
		"Name":"Leave Card",
		"SystemRefId":2,
		"Owner":"E2E",
		"ExtType":"php"	
	}

}