{
	"pms_employees": {
		"CompanyRefId":"company_id",
		"BranchRefId":"branch_id",
		"FirstName":"firstname",
		"LastName":"lastname",
		"MiddleName":"middlename",
		"ExtName":"extension_name",
		"AgencyId":"employee_number",
		"TIN":"tin"
	},
	"pms_employee_information": {
		"AssumptionDate":"assumption_date",
		"DivisionRefId":"division_id",
		"DepartmentRefId":"department_id",
		"OfficeRefId":"office_id",
		"UnitsRefId":"unit_id",
		"EmpStatusRefId":"employee_status_id",
		"PositionItemRefId":"position_item_id",
		"PositionRefId":"position_id",
		"StartDate":"start_date",
		"EndDate":"end_date"
	},
	"pms_salaryinfo": {
		"SalaryGradeRefId":"salarygrade_id",
		"JobGradeRefId":"jobgrade_id",
		"StepIncrementRefId":"step_inc",
		"PositionRefId":"position_id",
		"SalaryAmount":"basic_amount_one",
		"SalaryAmountTwo":"basic_amount_two",
		"EmpStatusRefId":"employee_status_id",
		"AssumptionDate":"salary_effectivity_date"
	}
}
