32,1965-09-24
217,1987-12-11
599,1988-12-26
10034,1972-11-26
10035,1955-08-11
20038,1980-11-17
20039,1964-01-08
20040,1969-06-08
30041,1965-11-14
40042,07/041967
40043,1977-02-08
40044,1961-04-21
50046,1955-05-02
60048,01/20/1982
70049,1972-07-05
70050,1974-05-17
70051,1982-04-24
80055,06/27/1959
90056,10/15/1979
100057,1965-07-05
100069,1982-09-25
100072,1969-02-28
100074,03/20/1988
100081,1988-04-27
100085,1986-06-06
110101,1961-01-08
110106,1969-01-31
120113,02/19/1984
120114,1979-01-01
120118,1992-02-13
130120,1976-08-22
130121,1959-03-13
130137,1992-09-09
150143,1992-08-19
150149,1992-06-01
150153,1994-10-31
160164,1979-02-11
160165,1992-07-29
160166,1972-07-04
160168,1990-11-30
160169,1994-10-27
160172,1991-11-20
160174,1984-07-04
160175,08/27/1988
160176,1992-05-18
160177,1984-10-13
160178,1992-05-09
160179,09/14/1969
160181,1994-12-05
160182,1987-08-23
160184,1974-07-07
160186,1986-09-10
160187,1991-12-18
160188,1992-10-17
160190,1984-11-30
160191,1986-08-04
160195,03/15/1995
160197,1991-08-03
160198,1993-05-13
160199,1986-05-23
160201,1991-04-05
160202,1993-06-21
160203,1995-12-13
160204,1996-01-17
160205,1994-06-01
160212,1986-07-02
160213,1990-11-11
160217,1991-11-05
160219,1987-04-04
160220,1993-07-03
160221,1967-10-08
160223,1989-09-08
160223,1989-09-08
160224,1988-09-24
160225,1982-08-23
160226,1982-02-06
160227,1994-11-22
160230,09//21/93
160235, 10/26/1975
160237,1981-12-28
160244, 5/13/1984
160245,1962-09-28
160246,1991-08-19
160250,1992-04-15
160251,1996-01-04
160252,1983-10-15
160253,1970-06-03
160254,1991-06-17
160427,1973-06-07
170256,1993-05-08
170257,1995-07-22
170258,1981-09-06
170261,1992-07-27
170263,1976-07-16
170264,09/17/1987
170265,1971-11-09
170266,1993-12-06
170267,1969-07-24
170268,08/25/1981
170269,1995-02-01
170270,04/15/1983
170271,1989-10-16
170272,1992-08-03
170275,1988-01-12
170277,1988-05-26
170278,1985-02-27
170279,07/28/1983
170285,1991-02-12
170286,1994-08-12
170287,1979-09-08
170288,1989-01-05
170290,06/23/1982
170293,1990-07-20
170294,1979-04-09
170295,1974-08-10
170297,1991-01-29
170298,1995-10-08
170299,1995-06-01
170300,1978-09-01
170303,1992-05-12
170304,1995-02-12
170305,1983-11-28
170306,1993-03-02
170307,08/16/1996
170308,1996-10-19
170309,11/27/1994
170310,08/17/1972
170328,1984-01-17
170344,1996-02-09
170346,1991-07-24
170348,07/18/1995
170349,05/16/1993
170350,1993-02-24
170351,1996-08-02
170352,1993-02-13
170354,02/21/1992
170358,12/18/1994
170364,1965-03-27
170365,1987-07-26
800054,1987-10-09
800054,1987-10-09
860001,1963-04-17
870005,1960-11-19
870006,1963-10-15
870007,1964-11-20
870008,1965-03-05
870010,1959-03-22
870011,1959-12-09
880012,1957-12-17
900015,05/22/1967
900016,1967-03-21
910017,08/24/1959
910018,1963-08-10
930020,1969-04-25
930021,1961-10-20
930022,1971-02-01
940023,1965-11-05
950024,1966-09-21
970025,1959-01-27
980026,1963-07-22
980027,1974-01-24
980028,1966-11-01
980029,1966-02-25
990031,1977-04-01
1700262,04/19/1982
1929952726,02/20/1996
102004-071,1979-10-18
120117,1963-10-14
