160232,ABAD
170258,ABANES
100079,ABDULRACHMAN
870007,ABON
170423,ABRAHAM
030041,AKMAD
170403,AKUT
870005,ALEGRE
170294,ALMACEN
100072,ALMONTE
170288,ANASTACIO
900016,ARANEZ
170271,ARBO
160178,ARCINUE
170358,ARELLANO
170366,ARNALDO
160226,AVENDANO
120114,BALOBO
980028,BARTOLOME
160244,BASAS
990031,BATASLAC
160195,BAUTISTA
040043,BELONIO
130120,BELTRAN
910018,BESANA
170391,BIGAY
010033,BLANCO
950024,BRIONES G
170405,BRIONES J
160199,BRUAN
170303,BUENO
090056,BUMATAY
980026,CABALLERO
160204,CABANLONG
170300,CARO
980029,CASUNCAD
150151,CAUSING
170396,CAYCO
170400,CELSO
170390,CHANJUECO
70049,CONCEPCION
170344,CORPUZ
160179,CORTES
100069,COSO
160246,CRISOLOGO
170287,CRUZ
170409,DAGALIA
170421,DAYAO
010034,DAYEGO
160220,DE CASTRO
170305,DE GUZMAN
170354,DE JESUS
160176,DE VILLA
170420,DEBILDOS
160182,DEL CASTILLO
170295,DEL MUNDO
100085,DEMABILDO
170306,DEQUITO
170263,DINGLASA
170285,DIOQUINO
160161,DULAY  
170406,DUMPA
170307,DURO
160175,DUTERTE
160174,DY
20038,ENALPE
120116,ENERIA
160177,FAJARDO
160190,FERNANDO
40042,FLORES
160245,FORNOLES
170417,FRIAS
170408,GALVEZ
170422,GARAY
160172,GARCIA D
940023,GARCIA E
160251,GARCIA J
170315,GLABIN
170416,GONZALES
170347,GUERRERO
130121,GUILLERMO
170324,GUTIERREZ
160163,HIMOR
160164,HOLGADO
160162,IKAN    
170419,JAGAPE
130123,JAVIER
000032,JUAN
980027,LAGARDE
110101,LATOJA 
170346,LAZO A
170265,LAZO R
150149,LINGAYA
170314,LINING
10035,LLORCA
100057,LOPEZ
870008,LOZANO
170304,LUMBA
170267,MADRAZO
110106,MAGAHIS
160213,MAGNO 
160190,MANAOIS
170364,MANGALILI
160252,MARTIREZ
160250,MEDINA
170286,MENDOZA
160202,MERCINES
930022,MONDOY
80054,MONTREAL
170395,MORALES
170310,MORANTE
170407,MORENO
170270,NAGASANGAN
170277,NASAYAO
870006,NAVAROSA
170261,NERA
160221,NERONA
170293,NGO
80055,OREO
170418,PABIL
170309,PADILLA H
160165,PADILLA F
120113,PAGARA
930021,PALMA
100074,PANESA
020040,PANGHULAN
170290,PANITIO
160237,PANSOY 
170392,PAREDES
870011,PEGENIA
70050,PENAFLOR
170262,PEREZ
120118,PETRAS
170299,PICZON
860001,PUZON
160219,QUINTANA
170257,RABAGO M
170411,RABAGO B
130137,RAMIREZ
070401,RAPIS
170357,REODIQUE
100081,RESUBAL
170351,RETUTA
160230,REYES M
70051,REYES A
160184,RODRIGUEZ
170327,ROMANO
930020,ROMENA
170275,RONGALERIOS
160116,SABADO
170426,SALAMATIN
160254,SALAZAR
170278,SALVOSA
160186,SANTOS J
170308,SANTOS D
170256,SARMIENTO
20039,SERILLA
160203,SOLIVA
170266,TAGUDINA
010036,TALENTO
170394,TAN C
170264,TAN J
170414,TATENO
160223,TENIDO
160253,TIBRE
160165,TRIA
170328,TUGAWIN
050046,TUSCANO
160236,TUTAAN
160169,VALLARTA 
900015,VILLADELREY
160222,VILLAMIN
170431,VILLAMOR
170412,VILLARUEL
160191,VILLEGAS
170352,WABAN
910017,WARREN
060048,YEKE
150143,ZIPAGAN